trade_goods = timber
life_rating = 25
terrain = conifer_forest_hills
1836.1.1 = {
	life_rating = 30
}
1861.1.1 = {
	owner = USA
	controller = USA
	add_core = USA
	state_building = {
		level = 1
		building = heavy_factory_building
		upgrade = yes
	}
}
