#early classical theory
adam_smith = {
	limit = {
		early_classical_theory_and_critique = 1
		has_country_flag = existing_country
	}
	news = no
	chance = {
		base = 2
		modifier = {
			factor = 2
			economic_policy = laissez_faire
		}
		modifier = {
			factor = 2
			trade_policy = free_trade
		}
	}
	effect = {
		permanent_prestige = 1	 
	}
}

jean_baptiste_say = {
	limit = {
		early_classical_theory_and_critique = 1
		has_country_flag = existing_country
	}
	news = no
	chance = {
		base = 2
		modifier = {
			factor = 2
			economic_policy = laissez_faire
		}
		modifier = {
			factor = 2
			trade_policy = free_trade
		}
	}
	effect = {
		permanent_prestige = 1	 
	}
}

david_ricardo = {
	limit = {
		early_classical_theory_and_critique = 1
		has_country_flag = existing_country
	}
	news = no
	chance = {
		base = 2
		modifier = {
			factor = 2
			economic_policy = laissez_faire
		}
		modifier = {
			factor = 2
			trade_policy = free_trade
		}
	}
	effect = {
		permanent_prestige = 1	 
	}
}

alexander_bain  = {
	limit = {
		associationism = 1
		has_country_flag = existing_country
	}
	news = no
	chance = {
		base = 2
		modifier = {
			factor = 2
			invention = john_stuart_mill
		}
	}
	effect = {
		shared_prestige = 5
	}	
}

thomas_brown  = {
	limit = {
		associationism = 1
		has_country_flag = existing_country
	}
	news = no
	chance = {
		base = 2
		modifier = {
			factor = 2
			invention = alexander_bain
		}
	}
	effect = {
		shared_prestige = 5
	}	
}

francis_galton  = {
	limit = {
		phenomenalism = 1
		has_country_flag = existing_country
	}
	news = no
	chance = {
		base = 2
		modifier = {
			factor = 2
			invention = darwinism
		}
	}
	effect = {
		shared_prestige = 5
	}	
}

alfred_binet  = {
	limit = {
		phenomenalism = 1
		has_country_flag = existing_country
	}
	news = no
	chance = {
		base = 0
		modifier = {
			factor = 1
			invention = francis_galton
		}
		modifier = {
			factor = 3
			year = 1890
		}
	}
	effect = {
		shared_prestige = 5
	}
}

charles_spearman  = {
	limit = {
		phenomenalism = 1
		has_country_flag = existing_country
	}
	news = no
	chance = {
		base = 0
		modifier = {
			factor = 1
			invention = francis_galton
		}
		modifier = {
			factor = 3
			invention = alfred_binet
		}
	}
	effect = {
		shared_prestige = 5
	}	
}

eugenics  = {
	limit = { phenomenalism = 1 }
	news = no
	chance = {
		base = 0
		modifier = {
			factor = 4
			year = 1890
		}
		modifier = {
			factor = -3
			civilized = no
		}
	}
	effect = {
		#pop_growth = -0.0001		
	}
	core_pop_consciousness_modifier = 0.01	
}

wilhelm_wundt  = {
	limit = {
		experimental_psychology = 1
		has_country_flag = existing_country
	}
	news = no
	chance = {
		base = 2
	}
	effect = {
		shared_prestige = 15		
	}
}

edward_titchener  = {
	limit = {
		experimental_psychology = 1
		has_country_flag = existing_country
	}
	news = no
	chance = {
		base = 2
		modifier = {
			factor = 2
			invention = wilhelm_wundt
		}
	}
	effect = {
		shared_prestige = 5		
	}
}

william_james  = {
	limit = {
		experimental_psychology = 1
		has_country_flag = existing_country
	}
	news = no
	chance = {
		base = 2
		modifier = {
			factor = 2
			functionalism = 1
		}
	}
	effect = {
		shared_prestige = 5		
	}
}

gs_hall  = {
	limit = {
		experimental_psychology = 1
		has_country_flag = existing_country
	}
	news = no
	chance = {
		base = 2
		modifier = {
			factor = 2
			biologism = 1
		}
	}
	effect = {
		shared_prestige = 5		
	}
}

hermann_ebbinghaus  = {
	limit = {
		experimental_psychology = 1
		has_country_flag = existing_country
	}
	news = no
	chance = {
		base = 2
		modifier = {
			factor = 2
			biologism = 1
		}
	}
	effect = {
		shared_prestige = 5		
	}
}

mary_calkins  = {
	limit = {
		experimental_psychology = 1
		has_country_flag = existing_country
	}
	news = no
	chance = {
		base = 0
		modifier = {
			factor = 1
			invention = william_james
		}
		modifier = {
			factor = 3
			year = 1890
		}
	}
	effect = {
		shared_prestige = 5		
	}
}


alfred_adler  = {
	limit = {
		psychoanalysis = 1
		has_country_flag = existing_country
	}
	news = no
	chance = {
		base = 2
		modifier = {
			factor = 2
			invention = sigmund_freud
		}
	}
	effect = {
		shared_prestige = 5		
	}
}

anna_freud  = {
	limit = {
		psychoanalysis = 1
		has_country_flag = existing_country
	}
	news = no
	chance = {
		base = 0
		modifier = {
			factor = 4
			year = 1920
		}
	}
	effect = {
		shared_prestige = 5		
	}
}

karen_horney  = {
	limit = {
		psychoanalysis = 1
		has_country_flag = existing_country
	}
	news = no
	chance = {
		base = 0
		modifier = {
			factor = 1
			invention = sigmund_freud
		}
		modifier = {
			factor = 3
			year = 1920
		}
	}
	effect = {
		shared_prestige = 5		
	}
}

ivan_pavlov  = {
	limit = {
		behaviorism = 1
		has_country_flag = existing_country
	}
	news = no
	chance = {
		base = 2
	}
	effect = {
		shared_prestige = 5		
	}
}

el_thorndike  = {
	limit = {
		behaviorism = 1
		has_country_flag = existing_country
	}
	news = no
	chance = {
		base = 2
	}
	effect = {
		shared_prestige = 5		
	}
}

jb_watson  = {
	limit = {
		behaviorism = 1
		has_country_flag = existing_country
	}
	news = no
	chance = {
		base = 2
		modifier = {
			factor = 2
			invention = ivan_pavlov
		}
	}
	effect = {
		shared_prestige = 5		
	}
}

ec_tolman  = {
	limit = {
		behaviorism = 1
		has_country_flag = existing_country
	}
	news = no
	chance = {
		base = 2
		modifier = {
			factor = 2
			invention = jb_watson
		}
	}
	effect = {
		shared_prestige = 5		
	}
}
