owner = GRE
controller = GRE
add_core = TUR
add_core = GRE
trade_goods = fish
life_rating = 30
terrain = insular
naval_base = 1
1836.1.1 = {
	remove_core = TUR
}
1861.1.1 = {
	state_building = {
		level = 1
		building = heavy_factory_building
		upgrade = yes
	}
}
