#Wests Papua (432000)
#uncolonized in 1836
#Raja Ampit Islands (88000/22000 POPS)  POPs not implemented. Islands are currently
#										set up to be part of Ternate, but should probably go to Tidore.
#										Undecided on this as of yet, there POPs left out
#1453 = {
#	capitalists = {
#		culture = moluccan
#		religion = sunni
#		size = 50
#	}
#
#	clergymen = {
#		culture = moluccan
#		religion = sunni
#		size = 50
#	}
#
#	artisans = {
#		culture = moluccan
#		religion = sunni
#		size = 1100
#	}
#
#	labourers = {
#		culture = moluccan
#		religion = sunni
#		size = 13850
#	}
#
#	capitalists = {
#		culture = melanesian
#		religion = animist
#		size = 200
#	}
#
#	clergymen = {
#		culture = melanesian
#		religion = animist
#		size = 350
#	}
#
#	artisans = {
#		culture = melanesian
#		religion = animist
#		size = 50
#	}
#
#	soldiers = {
#		culture = melanesian
#		religion = animist
#		size= 150
#
#	}
#
#	labourers = {
#		culture = melanesian
#		religion = animist
#		size = 6250
#	}
#}
#Papuan Interior (120000/30000 POPS)
1454 = {
	capitalists = {
		culture = melanesian
		religion = animist
		size = 300
	}

	clergymen = {
		culture = melanesian
		religion = animist
		size = 275
	}

	artisans = {
		culture = melanesian
		religion = animist
		size = 1400
	}

	soldiers = {
		culture = melanesian
		religion = animist
		size = 475
	}

	labourers = {
		culture = melanesian
		religion = animist
		size = 27725
	}
}
#Coast of Papua (234000/56000 POPS)
1560 = {
	capitalists = {
		culture = melanesian
		religion = animist
		size = 750
	}

	clergymen = {
		culture = melanesian
		religion = animist
		size = 550
	}

	artisans = {
		culture = melanesian
		religion = animist
		size = 2350
	}

	soldiers = {
		culture = melanesian
		religion = animist
		size= 300

	}

	labourers = {
		culture = melanesian
		religion = animist
		size = 51975
	}

}
