
#################################
#								#
#								#
#			  Egypt				#
#								#
#								#
#################################
1745 = {

	capitalists = {

		size = 5392
		culture = north_caucasian
		religion = sunni

	}
	capitalists = {

		size = 2572
		culture = misri
		religion = sunni

	}
	artisans = {

		size = 9895
		culture = north_caucasian
		religion = sunni

	}
	artisans = {

		size = 1236
		culture = north_caucasian
		religion = sunni

	}
	artisans = {

		size = 9895
		culture = misri
		religion = sunni

	}
	artisans = {

		size = 9895
		culture = misri
		religion = sunni

	}
	artisans = {

		size = 9895
		culture = misri
		religion = sunni

	}
	artisans = {

		size = 9895
		culture = misri
		religion = sunni

	}
	artisans = {

		size = 9895
		culture = misri
		religion = sunni

	}
	artisans = {

		size = 493
		culture = misri
		religion = sunni

	}
	artisans = {

		size = 9895
		culture = misri
		religion = coptic

	}
	artisans = {

		size = 7916
		culture = misri
		religion = coptic

	}
	artisans = {

		size = 2919
		culture = greek
		religion = orthodox

	}
	artisans = {

		size = 1216
		culture = sephardic
		religion = jewish

	}
	bureaucrats = {

		size = 1434
		culture = north_caucasian
		religion = sunni

	}
	bureaucrats = {

		size = 148
		culture = misri
		religion = sunni

	}
	clergymen = {

		size = 2176
		culture = misri
		religion = sunni

	}
	clergymen = {

		size = 346
		culture = misri
		religion = coptic

	}
	clerks = {

		size = 1831
		culture = french
		religion = protestant

	}
	craftsmen = {

		size = 17811
		culture = misri
		religion = sunni

	}
	labourers = {

		size = 141696
		culture = misri
		religion = sunni

	}
	labourers = {

		size = 26345
		culture = misri
		religion = coptic

	}
	officers = {

		size = 445
		culture = north_caucasian
		religion = sunni

	}
	officers = {

		size = 197
		culture = misri
		religion = sunni

	}
	slaves = {

		size = 8905
		culture = african_minor
		religion = animist

	}
	soldiers = {

		size = 6703
		culture = north_caucasian
		religion = sunni

	}
	soldiers = {

		size = 9895
		culture = misri
		religion = sunni

	}

}
1746 = {

	artisans = {

		size = 9895
		culture = north_caucasian
		religion = sunni

	}
	artisans = {

		size = 5516
		culture = north_caucasian
		religion = sunni

	}
	artisans = {

		size = 9895
		culture = misri
		religion = sunni

	}
	artisans = {

		size = 9895
		culture = misri
		religion = sunni

	}
	artisans = {

		size = 9895
		culture = misri
		religion = sunni

	}
	artisans = {

		size = 1781
		culture = misri
		religion = sunni

	}
	artisans = {

		size = 148
		culture = misri
		religion = coptic

	}
	clergymen = {

		size = 964
		culture = misri
		religion = sunni

	}
	labourers = {

		size = 77948
		culture = misri
		religion = sunni

	}
	labourers = {

		size = 2770
		culture = misri
		religion = coptic

	}

}
1747 = {

	artisans = {

		size = 5516
		culture = north_caucasian
		religion = sunni

	}
	artisans = {

		size = 4056
		culture = misri
		religion = sunni

	}
	artisans = {

		size = 98
		culture = misri
		religion = coptic

	}
	clergymen = {

		size = 865
		culture = misri
		religion = sunni

	}
	labourers = {

		size = 74435
		culture = misri
		religion = sunni

	}
	labourers = {

		size = 1830
		culture = misri
		religion = coptic

	}

}
1748 = {

	artisans = {

		size = 2374
		culture = north_caucasian
		religion = sunni

	}
	artisans = {

		size = 3017
		culture = misri
		religion = sunni

	}
	artisans = {

		size = 98
		culture = misri
		religion = coptic

	}
	artisans = {

		size = 242
		culture = sephardic
		religion = jewish

	}
	clergymen = {

		size = 648
		culture = misri
		religion = sunni

	}
	labourers = {

		size = 53828
		culture = misri
		religion = sunni

	}
	labourers = {

		size = 1830
		culture = misri
		religion = coptic

	}

}
1749 = {

	artisans = {

		size = 420
		culture = north_caucasian
		religion = sunni

	}
	artisans = {

		size = 5196
		culture = misri
		religion = sunni

	}
	artisans = {

		size = 98
		culture = misri
		religion = coptic

	}
	clergymen = {

		size = 690
		culture = misri
		religion = sunni

	}
	labourers = {

		size = 48782
		culture = misri
		religion = sunni

	}
	labourers = {

		size = 1830
		culture = misri
		religion = coptic

	}

}
1750 = {

	artisans = {

		size = 544
		culture = north_caucasian
		religion = sunni

	}
	artisans = {

		size = 4007
		culture = misri
		religion = sunni

	}
	artisans = {

		size = 148
		culture = misri
		religion = coptic

	}
	clergymen = {

		size = 841
		culture = misri
		religion = sunni

	}
	labourers = {

		size = 73638
		culture = misri
		religion = sunni

	}
	labourers = {

		size = 2770
		culture = misri
		religion = coptic

	}

}
1751 = {

	capitalists = {

		size = 6283
		culture = misri
		religion = sunni

	}
	artisans = {

		size = 9895
		culture = misri
		religion = sunni

	}
	artisans = {

		size = 742
		culture = misri
		religion = sunni

	}
	artisans = {

		size = 741
		culture = misri
		religion = coptic

	}
	artisans = {

		size = 979
		culture = sephardic
		religion = jewish

	}
	artisans = {

		size = 1929
		culture = greek
		religion = orthodox

	}
	bureaucrats = {

		size = 1162
		culture = misri
		religion = sunni

	}
	clergymen = {

		size = 1469
		culture = misri
		religion = sunni

	}
	clergymen = {

		size = 123
		culture = misri
		religion = coptic

	}
	labourers = {

		size = 114510
		culture = misri
		religion = sunni

	}
	labourers = {

		size = 11997
		culture = misri
		religion = coptic

	}
	officers = {

		size = 197
		culture = misri
		religion = sunni

	}
	slaves = {

		size = 5937
		culture = african_minor
		religion = animist

	}
	soldiers = {

		size = 14199
		culture = misri
		religion = sunni

	}

}
1752 = {

	artisans = {

		size = 593
		culture = misri
		religion = sunni

	}
	artisans = {

		size = 148
		culture = bedouin
		religion = sunni

	}
	clergymen = {

		size = 197
		culture = misri
		religion = sunni

	}
	labourers = {

		size = 10043
		culture = misri
		religion = sunni

	}
	labourers = {

		size = 2671
		culture = bedouin
		religion = sunni

	}

}
1753 = {

	capitalists = {

		size = 445
		culture = bedouin
		religion = sunni

	}
	artisans = {

		size = 247
		culture = bedouin
		religion = sunni

	}
	clergymen = {

		size = 49
		culture = bedouin
		religion = sunni

	}
	labourers = {

		size = 4526
		culture = bedouin
		religion = sunni

	}
	soldiers = {

		size = 1236
		culture = bedouin
		religion = sunni

	}

}
1754 = {

	artisans = {

		size = 197
		culture = bedouin
		religion = sunni

	}
	clergymen = {

		size = 49
		culture = bedouin
		religion = sunni

	}
	labourers = {

		size = 3611
		culture = bedouin
		religion = sunni

	}

}
1755 = {

	capitalists = {

		size = 435
		culture = misri
		religion = sunni

	}
	artisans = {

		size = 1878
		culture = misri
		religion = sunni

	}
	bureaucrats = {

		size = 11
		culture = misri
		religion = sunni

	}
	clergymen = {

		size = 173
		culture = misri
		religion = sunni

	}
	labourers = {

		size = 16168
		culture = misri
		religion = sunni

	}
	officers = {

		size = 24
		culture = misri
		religion = sunni

	}
	soldiers = {

		size = 282
		culture = misri
		religion = sunni

	}

}
1756 = {

	artisans = {

		size = 1088
		culture = misri
		religion = sunni

	}
	artisans = {

		size = 98
		culture = bedouin
		religion = sunni

	}
	clergymen = {

		size = 98
		culture = misri
		religion = sunni

	}
	labourers = {

		size = 1781
		culture = misri
		religion = sunni

	}
	labourers = {

		size = 1781
		culture = bedouin
		religion = sunni

	}

}
1757 = {

	artisans = {

		size = 252
		culture = misri
		religion = sunni

	}
	artisans = {

		size = 98
		culture = bedouin
		religion = sunni

	}
	clergymen = {

		size = 74
		culture = misri
		religion = sunni

	}
	labourers = {

		size = 890
		culture = misri
		religion = sunni

	}
	labourers = {

		size = 5739
		culture = bedouin
		religion = sunni

	}

}
1758 = {

	capitalists = {

		size = 321
		culture = bedouin
		religion = sunni

	}
	artisans = {

		size = 98
		culture = bedouin
		religion = sunni

	}
	clergymen = {

		size = 49
		culture = bedouin
		religion = sunni

	}
	labourers = {

		size = 1781
		culture = bedouin
		religion = sunni

	}
	officers = {

		size = 74
		culture = misri
		religion = sunni

	}
	soldiers = {

		size = 247
		culture = bedouin
		religion = sunni

	}

}
1759 = {

	artisans = {

		size = 148
		culture = bedouin
		religion = sunni

	}
	clergymen = {

		size = 74
		culture = bedouin
		religion = sunni

	}
	labourers = {

		size = 2671
		culture = bedouin
		religion = sunni

	}

}
1760 = {

	artisans = {

		size = 247
		culture = bedouin
		religion = sunni

	}
	clergymen = {

		size = 49
		culture = bedouin
		religion = sunni

	}
	labourers = {

		size = 4526
		culture = bedouin
		religion = sunni

	}

}
1761 = {

	artisans = {

		size = 197
		culture = bedouin
		religion = sunni

	}
	clergymen = {

		size = 49
		culture = bedouin
		religion = sunni

	}
	labourers = {

		size = 3611
		culture = bedouin
		religion = sunni

	}

}
1762 = {

	capitalists = {

		size = 2498
		culture = misri
		religion = sunni

	}
	artisans = {

		size = 2523
		culture = misri
		religion = sunni

	}
	artisans = {

		size = 890
		culture = misri
		religion = coptic

	}
	bureaucrats = {

		size = 123
		culture = misri
		religion = sunni

	}
	clergymen = {

		size = 296
		culture = misri
		religion = sunni

	}
	clergymen = {

		size = 148
		culture = misri
		religion = coptic

	}
	labourers = {

		size = 36849
		culture = misri
		religion = sunni

	}
	labourers = {

		size = 20715
		culture = misri
		religion = coptic

	}
	officers = {

		size = 173
		culture = misri
		religion = sunni

	}
	soldiers = {

		size = 3735
		culture = misri
		religion = sunni

	}

}
1763 = {

	artisans = {

		size = 2770
		culture = misri
		religion = sunni

	}
	artisans = {

		size = 148
		culture = misri
		religion = coptic

	}
	clergymen = {

		size = 197
		culture = misri
		religion = sunni

	}
	labourers = {

		size = 15411
		culture = misri
		religion = sunni

	}
	labourers = {

		size = 2770
		culture = misri
		religion = coptic

	}

}
1764 = {

	artisans = {

		size = 1533
		culture = misri
		religion = sunni

	}
	artisans = {

		size = 247
		culture = misri
		religion = coptic

	}
	clergymen = {

		size = 247
		culture = misri
		religion = sunni

	}
	labourers = {

		size = 18132
		culture = misri
		religion = sunni

	}
	labourers = {

		size = 4650
		culture = misri
		religion = coptic

	}

}
1765 = {

	artisans = {

		size = 2077
		culture = misri
		religion = sunni

	}
	artisans = {

		size = 296
		culture = misri
		religion = coptic

	}
	clergymen = {

		size = 470
		culture = misri
		religion = sunni

	}
	labourers = {

		size = 37279
		culture = misri
		religion = sunni

	}
	labourers = {

		size = 5590
		culture = misri
		religion = coptic

	}

}
1766 = {

	artisans = {

		size = 496
		culture = misri
		religion = sunni

	}
	artisans = {

		size = 98
		culture = misri
		religion = coptic

	}
	bureaucrats = {

		size = 47
		culture = misri
		religion = sunni

	}
	clergymen = {

		size = 148
		culture = misri
		religion = sunni

	}
	labourers = {

		size = 8885
		culture = misri
		religion = sunni

	}
	labourers = {

		size = 1830
		culture = misri
		religion = coptic

	}

}
1767 = {

	artisans = {

		size = 593
		culture = misri
		religion = sunni

	}
	artisans = {

		size = 247
		culture = misri
		religion = coptic

	}
	clergymen = {

		size = 173
		culture = misri
		religion = sunni

	}
	labourers = {

		size = 10760
		culture = misri
		religion = sunni

	}
	labourers = {

		size = 4650
		culture = misri
		religion = coptic

	}

}
1768 = {

	artisans = {

		size = 841
		culture = misri
		religion = sunni

	}
	artisans = {

		size = 98
		culture = misri
		religion = coptic

	}
	clergymen = {

		size = 222
		culture = misri
		religion = sunni

	}
	labourers = {

		size = 15312
		culture = misri
		religion = sunni

	}
	labourers = {

		size = 1830
		culture = misri
		religion = coptic

	}

}
1769 = {

	artisans = {

		size = 544
		culture = misri
		religion = sunni

	}
	artisans = {

		size = 98
		culture = misri
		religion = coptic

	}
	clergymen = {

		size = 148
		culture = misri
		religion = sunni

	}
	labourers = {

		size = 9895
		culture = misri
		religion = sunni

	}
	labourers = {

		size = 1830
		culture = misri
		religion = coptic

	}

}
1770 = {

	artisans = {

		size = 148
		culture = bedouin
		religion = sunni

	}
	clergymen = {

		size = 74
		culture = bedouin
		religion = sunni

	}
	labourers = {

		size = 2671
		culture = bedouin
		religion = sunni

	}

}
1771 = {

	capitalists = {

		size = 831
		culture = misri
		religion = sunni

	}
	artisans = {

		size = 49
		culture = misri
		religion = sunni

	}
	artisans = {

		size = 197
		culture = bedouin
		religion = sunni

	}
	clergymen = {

		size = 74
		culture = misri
		religion = sunni

	}
	labourers = {

		size = 890
		culture = misri
		religion = sunni

	}
	labourers = {

		size = 3611
		culture = bedouin
		religion = sunni

	}
	soldiers = {

		size = 603
		culture = misri
		religion = sunni

	}

}


1772 = {

	artisans = {

		size = 148
		culture = bedouin
		religion = sunni

	}
	clergymen = {

		size = 74
		culture = bedouin
		religion = sunni

	}
	labourers = {

		size = 2671
		culture = bedouin
		religion = sunni

	}

}



2559 = {

	artisans = {

		size = 1088
		culture = misri
		religion = sunni

	}
	artisans = {

		size = 98
		culture = misri
		religion = coptic

	}
	clergymen = {

		size = 272
		culture = misri
		religion = sunni

	}
	labourers = {

		size = 19814
		culture = misri
		religion = sunni

	}
	labourers = {

		size = 1830
		culture = misri
		religion = coptic

	}

}

#################################
#								#
#								#
#			 Sudan				#
#								#
#								#
#################################

1827 = {

	capitalists = {

		size = 2300
		culture = sudanese
		religion = sunni

	}
	capitalists = {

		size = 272
		culture = bedouin
		religion = sunni

	}
	capitalists = {

		size = 1038
		culture = african_minor
		religion = animist

	}
	artisans = {

		size = 2102
		culture = sudanese
		religion = sunni

	}
	artisans = {

		size = 791
		culture = bedouin
		religion = sunni

	}
	bureaucrats = {

		size = 39
		culture = sudanese
		religion = sunni

	}
	bureaucrats = {

		size = 49
		culture = misri
		religion = sunni

	}
	clergymen = {

		size = 420
		culture = sudanese
		religion = sunni

	}
	clergymen = {

		size = 148
		culture = bedouin
		religion = sunni

	}
	labourers = {

		size = 34780
		culture = sudanese
		religion = sunni

	}
	labourers = {

		size = 14496
		culture = bedouin
		religion = sunni

	}
	officers = {

		size = 108
		culture = sudanese
		religion = sunni

	}
	officers = {

		size = 148
		culture = misri
		religion = sunni

	}
	slaves = {

		size = 21769
		culture = african_minor
		religion = animist

	}
	slaves = {

		size = 4947
		culture = dinka
		religion = animist

	}
	soldiers = {

		size = 7965
		culture = sudanese
		religion = sunni

	}
	soldiers = {

		size = 296
		culture = misri
		religion = sunni

	}
	soldiers = {

		size = 123
		culture = bedouin
		religion = sunni

	}
	soldiers = {

		size = 470
		culture = african_minor
		religion = animist

	}

}
1828 = {

	artisans = {

		size = 1137
		culture = sudanese
		religion = sunni

	}
	clergymen = {

		size = 222
		culture = sudanese
		religion = sunni

	}
	labourers = {

		size = 20037
		culture = sudanese
		religion = sunni

	}
	slaves = {

		size = 6926
		culture = african_minor
		religion = animist

	}
	slaves = {

		size = 3958
		culture = dinka
		religion = animist

	}

}
1829 = {

	artisans = {

		size = 1137
		culture = sudanese
		religion = sunni

	}
	artisans = {

		size = 1434
		culture = african_minor
		religion = animist

	}
	artisans = {

		size = 197
		culture = beja
		religion = sunni

	}
	clergymen = {

		size = 222
		culture = sudanese
		religion = sunni

	}
	clergymen = {

		size = 346
		culture = african_minor
		religion = animist

	}
	clergymen = {

		size = 49
		culture = beja
		religion = sunni

	}
	labourers = {

		size = 20012
		culture = sudanese
		religion = sunni

	}
	labourers = {

		size = 23970
		culture = african_minor
		religion = animist

	}
	labourers = {

		size = 3586
		culture = beja
		religion = sunni

	}
	slaves = {

		size = 8905
		culture = african_minor
		religion = animist

	}

}
1830 = {

	artisans = {

		size = 1335
		culture = sudanese
		religion = sunni

	}
	artisans = {

		size = 247
		culture = african_minor
		religion = animist

	}
	artisans = {

		size = 395
		culture = dinka
		religion = animist

	}
	clergymen = {

		size = 247
		culture = sudanese
		religion = sunni

	}
	clergymen = {

		size = 49
		culture = african_minor
		religion = animist

	}
	clergymen = {

		size = 74
		culture = dinka
		religion = animist

	}
	labourers = {

		size = 21694
		culture = sudanese
		religion = sunni

	}
	labourers = {

		size = 4576
		culture = african_minor
		religion = animist

	}
	labourers = {

		size = 7223
		culture = dinka
		religion = animist

	}
	slaves = {

		size = 1979
		culture = african_minor
		religion = animist

	}

}
1831 = {

	artisans = {

		size = 964
		culture = sudanese
		religion = sunni

	}
	artisans = {

		size = 395
		culture = dinka
		religion = animist

	}
	clergymen = {

		size = 197
		culture = sudanese
		religion = sunni

	}
	clergymen = {

		size = 74
		culture = dinka
		religion = animist

	}
	labourers = {

		size = 17291
		culture = sudanese
		religion = sunni

	}
	labourers = {

		size = 7198
		culture = dinka
		religion = animist

	}
	slaves = {

		size = 3958
		culture = african_minor
		religion = animist

	}

}
1832 = {

	artisans = {

		size = 742
		culture = nuer
		religion = animist

	}
	artisans = {

		size = 346
		culture = dinka
		religion = animist

	}
	artisans = {

		size = 544
		culture = african_minor
		religion = animist

	}
	bureaucrats = {

		size = 24
		culture = sudanese
		religion = sunni

	}
	clergymen = {

		size = 148
		culture = nuer
		religion = animist

	}
	clergymen = {

		size = 74
		culture = dinka
		religion = animist

	}
	clergymen = {

		size = 98
		culture = african_minor
		religion = animist

	}
	labourers = {

		size = 13531
		culture = nuer
		religion = animist

	}
	labourers = {

		size = 6308
		culture = dinka
		religion = animist

	}
	labourers = {

		size = 8930
		culture = african_minor
		religion = animist

	}

}
1833 = {

	artisans = {

		size = 197
		culture = sudanese
		religion = sunni

	}
	artisans = {

		size = 346
		culture = bedouin
		religion = sunni

	}
	artisans = {

		size = 98
		culture = beja
		religion = sunni

	}
	artisans = {

		size = 1
		culture = sephardic
		religion = jewish

	}
	bureaucrats = {

		size = 24
		culture = sudanese
		religion = sunni

	}
	clergymen = {

		size = 49
		culture = sudanese
		religion = sunni

	}
	clergymen = {

		size = 74
		culture = bedouin
		religion = sunni

	}
	clergymen = {

		size = 49
		culture = beja
		religion = sunni

	}
	labourers = {

		size = 3537
		culture = sudanese
		religion = sunni

	}
	labourers = {

		size = 6308
		culture = bedouin
		religion = sunni

	}
	labourers = {

		size = 1781
		culture = beja
		religion = sunni

	}
	slaves = {

		size = 1979
		culture = african_minor
		religion = animist

	}

}
1834 = {

	capitalists = {

		size = 1291
		culture = sudanese
		religion = sunni

	}
	capitalists = {

		size = 49
		culture = bedouin
		religion = sunni

	}
	capitalists = {

		size = 49
		culture = beja
		religion = sunni

	}
	artisans = {

		size = 296
		culture = sudanese
		religion = sunni

	}
	artisans = {

		size = 148
		culture = bedouin
		religion = sunni

	}
	artisans = {

		size = 148
		culture = beja
		religion = sunni

	}
	clergymen = {

		size = 49
		culture = sudanese
		religion = sunni

	}
	clergymen = {

		size = 74
		culture = bedouin
		religion = sunni

	}
	clergymen = {

		size = 74
		culture = beja
		religion = sunni

	}
	labourers = {

		size = 5417
		culture = sudanese
		religion = sunni

	}
	labourers = {

		size = 2671
		culture = bedouin
		religion = sunni

	}
	labourers = {

		size = 2671
		culture = beja
		religion = sunni

	}
	officers = {

		size = 64
		culture = sudanese
		religion = sunni

	}
	soldiers = {

		size = 885
		culture = sudanese
		religion = sunni

	}
	soldiers = {

		size = 49
		culture = bedouin
		religion = sunni

	}

}
1835 = {

	artisans = {

		size = 148
		culture = sudanese
		religion = sunni

	}
	artisans = {

		size = 692
		culture = bedouin
		religion = sunni

	}
	artisans = {

		size = 49
		culture = beja
		religion = sunni

	}
	bureaucrats = {

		size = 9
		culture = sudanese
		religion = sunni

	}
	clergymen = {

		size = 74
		culture = sudanese
		religion = sunni

	}
	clergymen = {

		size = 123
		culture = bedouin
		religion = sunni

	}
	clergymen = {

		size = 24
		culture = beja
		religion = sunni

	}
	labourers = {

		size = 2572
		culture = sudanese
		religion = sunni

	}
	labourers = {

		size = 12640
		culture = bedouin
		religion = sunni

	}
	labourers = {

		size = 890
		culture = beja
		religion = sunni

	}
	slaves = {

		size = 2968
		culture = african_minor
		religion = animist

	}

}
1836 = {

	artisans = {

		size = 197
		culture = sudanese
		religion = sunni

	}
	artisans = {

		size = 197
		culture = bedouin
		religion = sunni

	}
	artisans = {

		size = 890
		culture = beja
		religion = sunni

	}
	clergymen = {

		size = 49
		culture = sudanese
		religion = sunni

	}
	clergymen = {

		size = 74
		culture = bedouin
		religion = sunni

	}
	clergymen = {

		size = 173
		culture = beja
		religion = sunni

	}
	labourers = {

		size = 3586
		culture = sudanese
		religion = sunni

	}
	labourers = {

		size = 3562
		culture = bedouin
		religion = sunni

	}
	labourers = {

		size = 16227
		culture = beja
		religion = sunni

	}

}
1837 = {

	artisans = {

		size = 49
		culture = sudanese
		religion = sunni

	}
	artisans = {

		size = 296
		culture = bedouin
		religion = sunni

	}
	artisans = {

		size = 148
		culture = beja
		religion = sunni

	}
	clergymen = {

		size = 24
		culture = sudanese
		religion = sunni

	}
	clergymen = {

		size = 49
		culture = bedouin
		religion = sunni

	}
	clergymen = {

		size = 74
		culture = beja
		religion = sunni

	}
	labourers = {

		size = 890
		culture = sudanese
		religion = sunni

	}
	labourers = {

		size = 5417
		culture = bedouin
		religion = sunni

	}
	labourers = {

		size = 2671
		culture = beja
		religion = sunni

	}

}
1838 = {

	artisans = {

		size = 1088
		culture = sudanese
		religion = sunni

	}
	bureaucrats = {

		size = 24
		culture = sudanese
		religion = sunni

	}
	clergymen = {

		size = 247
		culture = sudanese
		religion = sunni

	}
	labourers = {

		size = 23426
		culture = sudanese
		religion = sunni

	}
	slaves = {

		size = 18800
		culture = african_minor
		religion = animist

	}

}
1839 = {

	capitalists = {

		size = 692
		culture = sudanese
		religion = sunni

	}
	capitalists = {

		size = 1088
		culture = dinka
		religion = animist

	}
	artisans = {

		size = 1088
		culture = dinka
		religion = animist

	}
	bureaucrats = {

		size = 24
		culture = sudanese
		religion = sunni

	}
	clergymen = {

		size = 247
		culture = dinka
		religion = animist

	}
	labourers = {

		size = 23599
		culture = dinka
		religion = animist

	}
	officers = {

		size = 98
		culture = sudanese
		religion = sunni

	}
	slaves = {

		size = 14842
		culture = african_minor
		religion = animist

	}
	soldiers = {

		size = 865
		culture = dinka
		religion = animist

	}
	soldiers = {

		size = 445
		culture = sudanese
		religion = sunni

	}

}
1840 = {

	artisans = {

		size = 717
		culture = nuba
		religion = animist

	}
	artisans = {

		size = 791
		culture = african_minor
		religion = animist

	}
	bureaucrats = {

		size = 24
		culture = sudanese
		religion = sunni

	}
	clergymen = {

		size = 173
		culture = nuba
		religion = animist

	}
	clergymen = {

		size = 148
		culture = african_minor
		religion = animist

	}
	labourers = {

		size = 16277
		culture = nuba
		religion = animist

	}
	labourers = {

		size = 14471
		culture = african_minor
		religion = animist

	}
	slaves = {

		size = 9895
		culture = nuba
		religion = animist

	}

}
1841 = {

	artisans = {

		size = 2572
		culture = fur
		religion = sunni

	}
	bureaucrats = {

		size = 98
		culture = fur
		religion = sunni

	}
	clergymen = {

		size = 643
		culture = fur
		religion = sunni

	}
	labourers = {

		size = 57391
		culture = fur
		religion = sunni

	}
	labourers = {

		size = 3958
		culture = african_minor
		religion = animist

	}

}
1842 = {

	capitalists = {

		size = 1954
		culture = fur
		religion = sunni

	}
	capitalists = {

		size = 49
		culture = bedouin
		religion = sunni

	}
	capitalists = {

		size = 296
		culture = african_minor
		religion = animist

	}
	artisans = {

		size = 1484
		culture = fur
		religion = sunni

	}
	artisans = {

		size = 197
		culture = bedouin
		religion = sunni

	}
	clergymen = {

		size = 346
		culture = fur
		religion = sunni

	}
	clergymen = {

		size = 98
		culture = bedouin
		religion = sunni

	}
	labourers = {

		size = 31664
		culture = fur
		religion = sunni

	}
	labourers = {

		size = 3562
		culture = bedouin
		religion = sunni

	}
	labourers = {

		size = 10290
		culture = african_minor
		religion = animist

	}
	officers = {

		size = 197
		culture = fur
		religion = sunni

	}
	soldiers = {

		size = 2424
		culture = fur
		religion = sunni

	}
	soldiers = {

		size = 49
		culture = bedouin
		religion = sunni

	}
	soldiers = {

		size = 272
		culture = african_minor
		religion = animist

	}

}
1843 = {

	artisans = {

		size = 346
		culture = fur
		religion = sunni

	}
	artisans = {

		size = 296
		culture = african_minor
		religion = animist

	}
	artisans = {

		size = 445
		culture = nuba
		religion = animist

	}
	clergymen = {

		size = 74
		culture = fur
		religion = sunni

	}
	clergymen = {

		size = 49
		culture = african_minor
		religion = animist

	}
	clergymen = {

		size = 98
		culture = nuba
		religion = animist

	}
	labourers = {

		size = 6283
		culture = fur
		religion = sunni

	}
	labourers = {

		size = 5417
		culture = african_minor
		religion = animist

	}
	labourers = {

		size = 9944
		culture = nuba
		religion = animist

	}
	labourers = {

		size = 3958
		culture = african_minor
		religion = animist

	}
	labourers = {

		size = 6926
		culture = nuba
		religion = animist

	}

}
1844 = {

	capitalists = {

		size = 222
		culture = sudanese
		religion = sunni

	}
	capitalists = {

		size = 3092
		culture = dinka
		religion = animist

	}
	capitalists = {

		size = 742
		culture = nuer
		religion = animist

	}
	capitalists = {

		size = 296
		culture = african_minor
		religion = animist

	}
	artisans = {

		size = 148
		culture = sudanese
		religion = sunni

	}
	artisans = {

		size = 841
		culture = dinka
		religion = animist

	}
	artisans = {

		size = 1929
		culture = nuer
		religion = animist

	}
	artisans = {

		size = 667
		culture = african_minor
		religion = animist

	}
	clergymen = {

		size = 74
		culture = sudanese
		religion = sunni

	}
	clergymen = {

		size = 173
		culture = dinka
		religion = animist

	}
	clergymen = {

		size = 395
		culture = nuer
		religion = animist

	}
	clergymen = {

		size = 173
		culture = african_minor
		religion = animist

	}
	labourers = {

		size = 2671
		culture = sudanese
		religion = sunni

	}
	labourers = {

		size = 15312
		culture = dinka
		religion = animist

	}
	labourers = {

		size = 35127
		culture = nuer
		religion = animist

	}
	labourers = {

		size = 15411
		culture = african_minor
		religion = animist

	}
	labourers = {

		size = 9895
		culture = african_minor
		religion = animist

	}
	soldiers = {

		size = 49
		culture = sudanese
		religion = sunni

	}
	soldiers = {

		size = 1855
		culture = dinka
		religion = animist

	}
	soldiers = {

		size = 395
		culture = nuer
		religion = animist

	}
	soldiers = {

		size = 272
		culture = african_minor
		religion = animist

	}

}
1845 = {

	artisans = {

		size = 197
		culture = fur
		religion = sunni

	}
	artisans = {

		size = 890
		culture = azande
		religion = animist

	}
	clergymen = {

		size = 49
		culture = fur
		religion = sunni

	}
	clergymen = {

		size = 222
		culture = azande
		religion = animist

	}
	labourers = {

		size = 3611
		culture = fur
		religion = sunni

	}
	labourers = {

		size = 20581
		culture = azande
		religion = animist

	}
	labourers = {

		size = 7916
		culture = azande
		religion = animist

	}

}
1846 = {

	artisans = {

		size = 1187
		culture = azande
		religion = animist

	}
	artisans = {

		size = 890
		culture = nuer
		religion = animist

	}
	artisans = {

		size = 742
		culture = african_minor
		religion = animist

	}
	clergymen = {

		size = 247
		culture = azande
		religion = animist

	}
	clergymen = {

		size = 173
		culture = nuer
		religion = animist

	}
	clergymen = {

		size = 173
		culture = african_minor
		religion = animist

	}
	labourers = {

		size = 21620
		culture = azande
		religion = animist

	}
	labourers = {

		size = 16227
		culture = nuer
		religion = animist

	}
	labourers = {

		size = 16376
		culture = african_minor
		religion = animist

	}
	labourers = {

		size = 1088
		culture = african_minor
		religion = animist

	}

}
1847 = {

	artisans = {

		size = 1385
		culture = luo
		religion = animist

	}
	artisans = {

		size = 346
		culture = african_minor
		religion = animist

	}
	clergymen = {

		size = 272
		culture = luo
		religion = animist

	}
	clergymen = {

		size = 74
		culture = african_minor
		religion = animist

	}
	labourers = {

		size = 25232
		culture = luo
		religion = animist

	}
	labourers = {

		size = 6308
		culture = african_minor
		religion = animist

	}

}
1848 = {

	capitalists = {

		size = 346
		culture = tigray
		religion = coptic

	}
	capitalists = {

		size = 272
		culture = tigray
		religion = sunni

	}
	artisans = {

		size = 593
		culture = tigray
		religion = coptic

	}
	artisans = {

		size = 395
		culture = tigray
		religion = sunni

	}
	bureaucrats = {

		size = 14
		culture = tigray
		religion = coptic

	}
	clergymen = {

		size = 123
		culture = tigray
		religion = coptic

	}
	clergymen = {

		size = 74
		culture = tigray
		religion = sunni

	}
	labourers = {

		size = 10711
		culture = tigray
		religion = coptic

	}
	labourers = {

		size = 7223
		culture = tigray
		religion = sunni

	}
	officers = {

		size = 24
		culture = tigray
		religion = coptic

	}
	soldiers = {

		size = 197
		culture = tigray
		religion = coptic

	}
	soldiers = {

		size = 143
		culture = tigray
		religion = sunni

	}

}
1849 = {

	artisans = {

		size = 148
		culture = tigray
		religion = sunni

	}
	artisans = {

		size = 197
		culture = bedouin
		religion = sunni

	}
	bureaucrats = {

		size = 4
		culture = misri
		religion = sunni

	}
	clergymen = {

		size = 74
		culture = tigray
		religion = sunni

	}
	clergymen = {

		size = 74
		culture = bedouin
		religion = sunni

	}
	labourers = {

		size = 2671
		culture = tigray
		religion = sunni

	}
	labourers = {

		size = 3562
		culture = bedouin
		religion = sunni

	}

}
1850 = {

	artisans = {

		size = 346
		culture = tigray
		religion = coptic

	}
	clergymen = {

		size = 74
		culture = tigray
		religion = coptic

	}
	labourers = {

		size = 6308
		culture = tigray
		religion = coptic

	}

}

2564 = {

	artisans = {

		size = 98
		culture = bedouin
		religion = sunni

	}
	clergymen = {

		size = 49
		culture = bedouin
		religion = sunni

	}
	labourers = {

		size = 1781
		culture = bedouin
		religion = sunni

	}

}
