2560 = {

	artisans = {

		size = 3296
		culture = north_german
		religion = protestant

	}
	artisans = {

		size = 2197
		culture = north_german
		religion = catholic

	}
	bureaucrats = {

		size = 371
		culture = north_german
		religion = protestant

	}
	clergymen = {

		size = 457
		culture = north_german
		religion = protestant

	}
	clergymen = {

		size = 343
		culture = north_german
		religion = catholic

	}
	labourers = {

		size = 43391
		culture = north_german
		religion = protestant

	}
	labourers = {

		size = 31019
		culture = north_german
		religion = catholic

	}

}

2561 = {

	artisans = {

		size = 1007
		culture = north_german
		religion = catholic

	}
	artisans = {

		size = 297
		culture = north_german
		religion = protestant

	}
	clergymen = {

		size = 228
		culture = north_german
		religion = catholic

	}
	labourers = {

		size = 16116
		culture = north_german
		religion = catholic

	}
	labourers = {

		size = 5036
		culture = north_german
		religion = protestant

	}

}

3249 = {

	artisans = {

		size = 250
		culture = wallonian
		religion = catholic

	}
	artisans = {

		size = 750
		culture = north_german
		religion = catholic

	}
	clergymen = {

		size = 55
		culture = wallonian
		religion = catholic

	}
	clergymen = {

		size = 175
		culture = north_german
		religion = catholic

	}
	labourers = {

		size = 3000
		culture = wallonian
		religion = catholic

	}
	labourers = {

		size = 20000
		culture = north_german
		religion = catholic

	}

}


#########################
#	Schleswig-Holstein	#
#########################

369 = {

	capitalists = {

		size = 869
		culture = north_german
		religion = protestant

	}
	artisans = {

		size = 2197
		culture = north_german
		religion = protestant

	}
	artisans = {

		size = 91
		culture = north_german
		religion = catholic

	}
	artisans = {

		size = 448
		culture = ashkenazi
		religion = jewish

	}
	artisans = {

		size = 183
		culture = danish
		religion = protestant

	}
	bureaucrats = {

		size = 160
		culture = north_german
		religion = protestant

	}
	clergymen = {

		size = 627
		culture = north_german
		religion = protestant

	}
	labourers = {

		size = 44549
		culture = north_german
		religion = protestant

	}
	labourers = {

		size = 1671
		culture = north_german
		religion = catholic

	}
	labourers = {

		size = 4303
		culture = danish
		religion = protestant

	}
	officers = {

		size = 91
		culture = north_german
		religion = protestant

	}
	soldiers = {

		size = 4647
		culture = north_german
		religion = protestant

	}

}
370 = {

	capitalists = {

		size = 686
		culture = north_german
		religion = protestant

	}
	artisans = {

		size = 5036
		culture = danish
		religion = protestant

	}
	artisans = {

		size = 2069
		culture = north_german
		religion = protestant

	}
	artisans = {

		size = 220
		culture = frisian
		religion = protestant

	}
	bureaucrats = {

		size = 91
		culture = danish
		religion = protestant

	}
	bureaucrats = {

		size = 91
		culture = north_german
		religion = protestant

	}
	clergymen = {

		size = 114
		culture = danish
		religion = protestant

	}
	clergymen = {

		size = 200
		culture = north_german
		religion = protestant

	}
	clergymen = {

		size = 28
		culture = frisian
		religion = protestant

	}
	labourers = {

		size = 6079
		culture = danish
		religion = protestant

	}
	labourers = {

		size = 27475
		culture = north_german
		religion = protestant

	}
	labourers = {

		size = 11200
		culture = frisian
		religion = protestant

	}
	officers = {

		size = 137
		culture = north_german
		religion = protestant

	}
	soldiers = {

		size = 503
		culture = danish
		religion = protestant

	}
	soldiers = {

		size = 457
		culture = north_german
		religion = protestant

	}

}
371 = {

	artisans = {

		size = 1007
		culture = danish
		religion = protestant

	}
	artisans = {

		size = 228
		culture = north_german
		religion = protestant

	}
	clergymen = {

		size = 114
		culture = danish
		religion = protestant

	}
	clergymen = {

		size = 45
		culture = north_german
		religion = protestant

	}
	labourers = {

		size = 15223
		culture = danish
		religion = protestant

	}
	labourers = {

		size = 5997
		culture = north_german
		religion = protestant

	}

}


529 = {

	artisans = {

		size = 1671
		culture = north_german
		religion = protestant

	}
	clergymen = {

		size = 343
		culture = north_german
		religion = protestant

	}
	labourers = {

		size = 30676
		culture = north_german
		religion = protestant

	}

}

######################
#	Hannover et al	 #
######################
528 = {

	capitalists = {

		size = 274
		culture = north_german
		religion = protestant

	}
	artisans = {

		size = 9157
		culture = north_german
		religion = protestant

	}
	artisans = {

		size = 1785
		culture = ashkenazi
		religion = jewish

	}
	bureaucrats = {

		size = 91
		culture = north_german
		religion = protestant

	}
	clergymen = {

		size = 339
		culture = north_german
		religion = protestant

	}
	clerks = {

		size = 1835
		culture = north_german
		religion = protestant

	}
	craftsmen = {

		size = 16482
		culture = north_german
		religion = protestant

	}
	labourers = {

		size = 14880
		culture = north_german
		religion = protestant

	}
	officers = {

		size = 22
		culture = north_german
		religion = protestant

	}
	soldiers = {

		size = 915
		culture = north_german
		religion = protestant

	}

}

530 = {

	capitalists = {

		size = 91
		culture = north_german
		religion = protestant

	}
	artisans = {

		size = 5448
		culture = north_german
		religion = protestant

	}
	artisans = {

		size = 274
		culture = north_german
		religion = catholic

	}
	bureaucrats = {

		size = 45
		culture = north_german
		religion = protestant

	}
	clergymen = {

		size = 68
		culture = north_german
		religion = protestant

	}
	labourers = {

		size = 2193
		culture = north_german
		religion = protestant

	}
	labourers = {

		size = 183
		culture = north_german
		religion = catholic

	}
	officers = {

		size = 4
		culture = north_german
		religion = protestant

	}
	soldiers = {

		size = 915
		culture = north_german
		religion = protestant

	}

}
531 = {

	capitalists = {

		size = 915
		culture = north_german
		religion = protestant

	}
	artisans = {

		size = 2518
		culture = north_german
		religion = protestant

	}
	bureaucrats = {

		size = 45
		culture = north_german
		religion = protestant

	}
	clergymen = {

		size = 457
		culture = north_german
		religion = protestant

	}
	labourers = {

		size = 43999
		culture = north_german
		religion = protestant

	}
	officers = {

		size = 91
		culture = north_german
		religion = protestant

	}
	soldiers = {

		size = 2747
		culture = north_german
		religion = protestant

	}

}
532 = {

	artisans = {

		size = 2060
		culture = north_german
		religion = protestant

	}
	clergymen = {

		size = 4120
		culture = north_german
		religion = protestant

	}
	labourers = {

		size = 42031
		culture = north_german
		religion = protestant

	}

}
533 = {

	clergymen = {

		size = 12
		culture = north_german
		religion = protestant

	}
	labourers = {

		size = 230
		culture = north_german
		religion = protestant

	}
	labourers = {

		size = 136
		culture = frisian
		religion = protestant

	}

}
534 = {

	capitalists = {

		size = 1556
		culture = north_german
		religion = protestant

	}
	artisans = {

		size = 4807
		culture = north_german
		religion = protestant

	}
	artisans = {

		size = 183
		culture = north_german
		religion = catholic

	}
	artisans = {

		size = 892
		culture = ashkenazi
		religion = jewish

	}
	bureaucrats = {

		size = 457
		culture = north_german
		religion = protestant

	}
	clergymen = {

		size = 892
		culture = north_german
		religion = protestant

	}
	labourers = {

		size = 81795
		culture = north_german
		religion = protestant

	}
	labourers = {

		size = 3365
		culture = north_german
		religion = catholic

	}
	officers = {

		size = 274
		culture = north_german
		religion = protestant

	}
	soldiers = {

		size = 5540
		culture = north_german
		religion = protestant

	}

}
535 = {

	artisans = {

		size = 2976
		culture = north_german
		religion = protestant

	}
	artisans = {

		size = 892
		culture = ashkenazi
		religion = jewish

	}
	clergymen = {

		size = 572
		culture = north_german
		religion = protestant

	}
	labourers = {

		size = 52722
		culture = north_german
		religion = protestant

	}

}
536 = {

	capitalists = {

		size = 457
		culture = north_german
		religion = protestant

	}
	artisans = {

		size = 7783
		culture = north_german
		religion = protestant

	}
	bureaucrats = {

		size = 91
		culture = north_german
		religion = protestant

	}
	clergymen = {

		size = 434
		culture = north_german
		religion = protestant

	}
	labourers = {

		size = 48876
		culture = north_german
		religion = protestant

	}
	labourers = {

		size = 879
		culture = north_german
		religion = catholic

	}
	officers = {

		size = 68
		culture = north_german
		religion = protestant

	}
	soldiers = {

		size = 1845
		culture = north_german
		religion = protestant

	}

}
537 = {

	artisans = {

		size = 2060
		culture = north_german
		religion = protestant

	}
	clergymen = {

		size = 412
		culture = north_german
		religion = protestant

	}
	labourers = {

		size = 37475
		culture = north_german
		religion = protestant

	}

}
538 = {

	artisans = {

		size = 366
		culture = dutch
		religion = protestant

	}
	artisans = {

		size = 1694
		culture = north_german
		religion = protestant

	}
	artisans = {

		size = 1602
		culture = north_german
		religion = catholic

	}
	clergymen = {

		size = 51
		culture = dutch
		religion = protestant

	}
	clergymen = {

		size = 177
		culture = north_german
		religion = protestant

	}
	clergymen = {

		size = 288
		culture = north_german
		religion = catholic

	}
	labourers = {

		size = 4533
		culture = dutch
		religion = protestant

	}
	labourers = {

		size = 20145
		culture = north_german
		religion = protestant

	}
	labourers = {

		size = 20649
		culture = north_german
		religion = catholic

	}

}
539 = {

	capitalists = {

		size = 91
		culture = north_german
		religion = protestant

	}
	artisans = {

		size = 7794
		culture = north_german
		religion = protestant

	}
	bureaucrats = {

		size = 38
		culture = north_german
		religion = protestant

	}
	clergymen = {

		size = 137
		culture = north_german
		religion = protestant

	}
	labourers = {

		size = 4789
		culture = north_german
		religion = protestant

	}
	labourers = {

		size = 892
		culture = north_german
		religion = catholic

	}
	officers = {

		size = 13
		culture = north_german
		religion = protestant

	}
	soldiers = {

		size = 915
		culture = north_german
		religion = protestant

	}

}
540 = {

	capitalists = {

		size = 480
		culture = north_german
		religion = protestant

	}
	artisans = {

		size = 2106
		culture = north_german
		religion = protestant

	}
	bureaucrats = {

		size = 114
		culture = north_german
		religion = protestant

	}
	clergymen = {

		size = 425
		culture = north_german
		religion = protestant

	}
	labourers = {

		size = 35529
		culture = north_german
		religion = protestant

	}
	labourers = {

		size = 1703
		culture = north_german
		religion = catholic

	}
	officers = {

		size = 68
		culture = north_german
		religion = protestant

	}
	soldiers = {

		size = 2014
		culture = north_german
		religion = protestant

	}

}
541 = {

	artisans = {

		size = 595
		culture = north_german
		religion = protestant

	}
	artisans = {

		size = 7188
		culture = north_german
		religion = catholic

	}
	clergymen = {

		size = 183
		culture = north_german
		religion = protestant

	}
	labourers = {

		size = 10965
		culture = north_german
		religion = protestant

	}

}
542 = {

	artisans = {

		size = 374
		culture = dutch
		religion = protestant

	}
	artisans = {

		size = 358
		culture = north_german
		religion = protestant

	}
	artisans = {

		size = 137
		culture = north_german
		religion = catholic

	}
	bureaucrats = {

		size = 68
		culture = north_german
		religion = protestant

	}
	clergymen = {

		size = 61
		culture = dutch
		religion = protestant

	}
	clergymen = {

		size = 90
		culture = north_german
		religion = protestant

	}
	labourers = {

		size = 7856
		culture = north_german
		religion = protestant

	}
	labourers = {

		size = 2527
		culture = north_german
		religion = catholic

	}
	labourers = {

		size = 7833
		culture = dutch
		religion = protestant

	}

}
543 = {

	capitalists = {

		size = 493
		culture = frisian
		religion = protestant

	}
	capitalists = {

		size = 220
		culture = north_german
		religion = catholic

	}
	artisans = {

		size = 1318
		culture = frisian
		religion = protestant

	}
	artisans = {

		size = 513
		culture = north_german
		religion = catholic

	}
	clergymen = {

		size = 164
		culture = frisian
		religion = protestant

	}
	clergymen = {

		size = 60
		culture = north_german
		religion = catholic

	}
	labourers = {

		size = 13159
		culture = frisian
		religion = protestant

	}
	labourers = {

		size = 3666
		culture = north_german
		religion = catholic

	}
	officers = {

		size = 45
		culture = frisian
		religion = protestant

	}
	soldiers = {

		size = 480
		culture = frisian
		religion = protestant

	}
	soldiers = {

		size = 389
		culture = north_german
		religion = catholic

	}

}
544 = {

	capitalists = {

		size = 1304
		culture = north_german
		religion = protestant

	}
	artisans = {

		size = 5496
		culture = north_german
		religion = protestant

	}
	artisans = {

		size = 892
		culture = ashkenazi
		religion = jewish

	}
	bureaucrats = {

		size = 248
		culture = north_german
		religion = protestant

	}
	clergymen = {

		size = 1121
		culture = north_german
		religion = protestant

	}
	labourers = {

		size = 100545
		culture = north_german
		religion = protestant

	}
	officers = {

		size = 137
		culture = north_german
		religion = protestant

	}
	soldiers = {

		size = 2062
		culture = north_german
		religion = protestant

	}

}
545 = {

	artisans = {

		size = 1030
		culture = north_german
		religion = protestant

	}
	clergymen = {

		size = 206
		culture = north_german
		religion = protestant

	}
	labourers = {

		size = 18268
		culture = north_german
		religion = protestant

	}

}
#################
#	Brandeburg	#
#################
546 = {

	capitalists = {

		size = 2727
		culture = north_german
		religion = protestant

	}
	artisans = {

		size = 7602
		culture = north_german
		religion = protestant

	}
	artisans = {

		size = 892
		culture = ashkenazi
		religion = jewish

	}
	bureaucrats = {

		size = 1190
		culture = north_german
		religion = protestant

	}
	clergymen = {

		size = 1071
		culture = north_german
		religion = protestant

	}
	craftsmen = {

		size = 6105
		culture = north_german
		religion = protestant

	}
	labourers = {

		size = 95012
		culture = north_german
		religion = protestant

	}
	labourers = {

		size = 842
		culture = polish
		religion = catholic

	}
	officers = {

		size = 320
		culture = north_german
		religion = protestant

	}
	soldiers = {

		size = 7466
		culture = north_german
		religion = protestant

	}
	soldiers = {

		size = 993
		culture = polish
		religion = catholic

	}

}
547 = {

	artisans = {

		size = 1510
		culture = north_german
		religion = protestant

	}
	clergymen = {

		size = 297
		culture = north_german
		religion = protestant

	}
	labourers = {

		size = 27219
		culture = north_german
		religion = protestant

	}

}
548 = {

	artisans = {

		size = 2151
		culture = north_german
		religion = protestant

	}
	artisans = {

		size = 1281
		culture = north_german
		religion = catholic

	}
	artisans = {

		size = 224
		culture = ashkenazi
		religion = jewish

	}
	clergymen = {

		size = 210
		culture = north_german
		religion = protestant

	}
	clergymen = {

		size = 137
		culture = north_german
		religion = catholic

	}
	labourers = {

		size = 18543
		culture = north_german
		religion = protestant

	}
	labourers = {

		size = 11400
		culture = north_german
		religion = catholic

	}

}
549 = {

	capitalists = {

		size = 3958
		culture = north_german
		religion = protestant

	}
	artisans = {

		size = 9157
		culture = north_german
		religion = protestant

	}
	artisans = {

		size = 9157
		culture = north_german
		religion = protestant

	}
	artisans = {

		size = 9157
		culture = north_german
		religion = protestant

	}
	artisans = {

		size = 4287
		culture = north_german
		religion = protestant

	}
	artisans = {

		size = 1236
		culture = north_german
		religion = catholic

	}
	artisans = {

		size = 2826
		culture = ashkenazi
		religion = jewish

	}
	artisans = {

		size = 137
		culture = polish
		religion = catholic

	}
	bureaucrats = {

		size = 2472
		culture = north_german
		religion = protestant

	}
	capitalists = {

		size = 24
		culture = north_german
		religion = protestant

	}
	clergymen = {

		size = 1492
		culture = north_german
		religion = protestant

	}
	clerks = {

		size = 2030
		culture = north_german
		religion = protestant

	}
	craftsmen = {

		size = 18474
		culture = north_german
		religion = protestant

	}
	craftsmen = {

		size = 1572
		culture = north_german
		religion = catholic

	}
	craftsmen = {

		size = 763
		culture = ashkenazi
		religion = jewish

	}
	labourers = {

		size = 107321
		culture = north_german
		religion = protestant

	}
	labourers = {

		size = 6256
		culture = north_german
		religion = catholic

	}
	officers = {

		size = 1098
		culture = north_german
		religion = protestant

	}
	soldiers = {

		size = 11034
		culture = north_german
		religion = protestant

	}
	soldiers = {

		size = 91
		culture = north_german
		religion = catholic

	}
	soldiers = {

		size = 46
		culture = polish
		religion = catholic

	}

}
550 = {

	artisans = {

		size = 3204
		culture = north_german
		religion = protestant

	}
	clergymen = {

		size = 618
		culture = north_german
		religion = protestant

	}
	labourers = {

		size = 57598
		culture = north_german
		religion = protestant

	}

}
551 = {

	artisans = {

		size = 2747
		culture = north_german
		religion = protestant

	}
	clergymen = {

		size = 526
		culture = north_german
		religion = protestant

	}
	labourers = {

		size = 47502
		culture = north_german
		religion = protestant

	}

}
552 = {

	artisans = {

		size = 2747
		culture = north_german
		religion = protestant

	}
	artisans = {

		size = 1190
		culture = north_german
		religion = catholic

	}
	clergymen = {

		size = 366
		culture = north_german
		religion = protestant

	}
	clergymen = {

		size = 274
		culture = western_slavic
		religion = protestant

	}
	clergymen = {

		size = 91
		culture = western_slavic
		religion = catholic

	}
	labourers = {

		size = 18314
		culture = north_german
		religion = protestant

	}
	labourers = {

		size = 45785
		culture = western_slavic
		religion = protestant

	}
	labourers = {

		size = 6501
		culture = western_slavic
		religion = catholic

	}

}
553 = {

	capitalists = {

		size = 2472
		culture = north_german
		religion = protestant

	}
	artisans = {

		size = 9157
		culture = north_german
		religion = protestant

	}
	artisans = {

		size = 1602
		culture = north_german
		religion = catholic

	}
	artisans = {

		size = 270
		culture = ashkenazi
		religion = jewish

	}
	bureaucrats = {

		size = 1281
		culture = north_german
		religion = protestant

	}
	clergymen = {

		size = 1034
		culture = north_german
		religion = protestant

	}
	clergymen = {

		size = 228
		culture = north_german
		religion = catholic

	}
	labourers = {

		size = 94341
		culture = north_german
		religion = protestant

	}
	labourers = {

		size = 20832
		culture = north_german
		religion = catholic

	}
	officers = {

		size = 320
		culture = north_german
		religion = protestant

	}
	soldiers = {

		size = 3662
		culture = north_german
		religion = protestant

	}
	soldiers = {

		size = 320
		culture = north_german
		religion = catholic

	}

}
554 = {

	capitalists = {

		size = 457
		culture = north_german
		religion = protestant

	}
	artisans = {

		size = 3043
		culture = north_german
		religion = protestant

	}
	artisans = {

		size = 686
		culture = north_german
		religion = catholic

	}
	artisans = {

		size = 178
		culture = ashkenazi
		religion = jewish

	}
	bureaucrats = {

		size = 10
		culture = north_german
		religion = protestant

	}
	clergymen = {

		size = 370
		culture = north_german
		religion = protestant

	}
	clergymen = {

		size = 91
		culture = north_german
		religion = catholic

	}
	labourers = {

		size = 36399
		culture = north_german
		religion = protestant

	}
	labourers = {

		size = 8287
		culture = north_german
		religion = catholic

	}
	soldiers = {

		size = 917
		culture = north_german
		religion = protestant

	}
	soldiers = {

		size = 91
		culture = north_german
		religion = catholic

	}

}
555 = {

	capitalists = {

		size = 297
		culture = north_german
		religion = protestant

	}
	artisans = {

		size = 1785
		culture = north_german
		religion = protestant

	}
	bureaucrats = {

		size = 67
		culture = north_german
		religion = protestant

	}
	clergymen = {

		size = 315
		culture = north_german
		religion = protestant

	}
	labourers = {

		size = 28737
		culture = north_german
		religion = protestant

	}
	labourers = {

		size = 842
		culture = north_german
		religion = catholic

	}
	officers = {

		size = 22
		culture = north_german
		religion = protestant

	}
	soldiers = {

		size = 946
		culture = north_german
		religion = protestant

	}

}
556 = {

	artisans = {

		size = 4578
		culture = north_german
		religion = protestant

	}
	artisans = {

		size = 526
		culture = north_german
		religion = catholic

	}
	artisans = {

		size = 224
		culture = ashkenazi
		religion = jewish

	}
	clergymen = {

		size = 851
		culture = north_german
		religion = protestant

	}
	clergymen = {

		size = 91
		culture = north_german
		religion = catholic

	}
	labourers = {

		size = 84176
		culture = north_german
		religion = protestant

	}
	labourers = {

		size = 9363
		culture = north_german
		religion = catholic

	}

}
##############
#	Saxony	 #
##############

557 = {

	artisans = {

		size = 1602
		culture = north_german
		religion = protestant

	}
	clergymen = {

		size = 297
		culture = north_german
		religion = protestant

	}
	labourers = {

		size = 28913
		culture = north_german
		religion = protestant

	}

}
558 = {

	capitalists = {

		size = 3218
		culture = north_german
		religion = protestant

	}
	artisans = {

		size = 7123
		culture = north_german
		religion = protestant

	}
	artisans = {

		size = 791
		culture = western_slavic
		religion = protestant

	}
	artisans = {

		size = 847
		culture = north_german
		religion = catholic

	}
	artisans = {

		size = 531
		culture = ashkenazi
		religion = jewish

	}
	bureaucrats = {

		size = 640
		culture = north_german
		religion = protestant

	}
	capitalists = {

		size = 8
		culture = north_german
		religion = protestant

	}
	clergymen = {

		size = 1379
		culture = north_german
		religion = protestant

	}
	clergymen = {

		size = 159
		culture = western_slavic
		religion = protestant

	}
	clerks = {

		size = 1553
		culture = north_german
		religion = protestant

	}
	craftsmen = {

		size = 6761
		culture = north_german
		religion = protestant

	}
	labourers = {

		size = 121238
		culture = north_german
		religion = protestant

	}
	labourers = {

		size = 16000
		culture = western_slavic
		religion = protestant

	}
	labourers = {

		size = 3571
		culture = north_german
		religion = catholic

	}
	officers = {

		size = 41
		culture = north_german
		religion = protestant

	}
	soldiers = {

		size = 3479
		culture = north_german
		religion = protestant

	}

}
559 = {

	artisans = {

		size = 8287
		culture = north_german
		religion = protestant

	}
	artisans = {

		size = 824
		culture = ashkenazi
		religion = jewish

	}
	clergymen = {

		size = 1007
		culture = north_german
		religion = protestant

	}
	clerks = {

		size = 82
		culture = north_german
		religion = protestant

	}
	craftsmen = {

		size = 869
		culture = north_german
		religion = protestant

	}
	labourers = {

		size = 83146
		culture = north_german
		religion = protestant

	}

}

#################################
#	Other North German Minors	#
#################################
560 = {

	artisans = {

		size = 4578
		culture = north_german
		religion = protestant

	}
	clergymen = {

		size = 581
		culture = north_german
		religion = protestant

	}
	labourers = {

		size = 57300
		culture = north_german
		religion = protestant

	}

}
561 = {

	capitalists = {

		size = 1007
		culture = north_german
		religion = protestant

	}
	artisans = {

		size = 3891
		culture = north_german
		religion = protestant

	}
	artisans = {

		size = 224
		culture = ashkenazi
		religion = jewish

	}
	bureaucrats = {

		size = 137
		culture = north_german
		religion = protestant

	}
	clergymen = {

		size = 805
		culture = north_german
		religion = protestant

	}
	labourers = {

		size = 76576
		culture = north_german
		religion = protestant

	}
	officers = {

		size = 91
		culture = north_german
		religion = protestant

	}
	soldiers = {

		size = 915
		culture = north_german
		religion = protestant

	}

}
562 = {

	capitalists = {

		size = 663
		culture = north_german
		religion = protestant

	}
	artisans = {

		size = 3342
		culture = north_german
		religion = protestant

	}
	bureaucrats = {

		size = 114
		culture = north_german
		religion = protestant

	}
	clergymen = {

		size = 618
		culture = north_german
		religion = protestant

	}
	labourers = {

		size = 61123
		culture = north_german
		religion = protestant

	}
	officers = {

		size = 68
		culture = north_german
		religion = protestant

	}
	soldiers = {

		size = 915
		culture = north_german
		religion = protestant

	}

}
563 = {

	capitalists = {

		size = 467
		culture = north_german
		religion = protestant

	}
	artisans = {

		size = 2380
		culture = north_german
		religion = protestant

	}
	bureaucrats = {

		size = 86
		culture = north_german
		religion = protestant

	}
	clergymen = {

		size = 457
		culture = north_german
		religion = protestant

	}
	labourers = {

		size = 43383
		culture = north_german
		religion = protestant

	}
	officers = {

		size = 45
		culture = north_german
		religion = protestant

	}
	soldiers = {

		size = 948
		culture = north_german
		religion = protestant

	}

}
564 = {

	capitalists = {

		size = 333
		culture = north_german
		religion = protestant

	}
	artisans = {

		size = 10000
		culture = north_german
		religion = protestant

	}
	artisans = {

		size = 9157
		culture = north_german
		religion = protestant

	}
	artisans = {

		size = 5644
		culture = north_german
		religion = protestant

	}
	artisans = {

		size = 1648
		culture = north_german
		religion = catholic

	}
	artisans = {

		size = 906
		culture = ashkenazi
		religion = jewish

	}
	bureaucrats = {

		size = 145
		culture = north_german
		religion = protestant

	}
	clergymen = {

		size = 314
		culture = north_german
		religion = protestant

	}
	clerks = {

		size = 1000
		culture = north_german
		religion = protestant

	}
	labourers = {

		size = 3572
		culture = north_german
		religion = protestant

	}
	labourers = {

		size = 128
		culture = north_german
		religion = catholic

	}
	officers = {

		size = 59
		culture = north_german
		religion = protestant

	}
	soldiers = {

		size = 1934
		culture = north_german
		religion = protestant

	}

}
565 = {

	capitalists = {

		size = 434
		culture = north_german
		religion = protestant

	}
	artisans = {

		size = 3021
		culture = north_german
		religion = protestant

	}
	artisans = {

		size = 3342
		culture = north_german
		religion = catholic

	}
	artisans = {

		size = 540
		culture = ashkenazi
		religion = jewish

	}
	bureaucrats = {

		size = 160
		culture = north_german
		religion = protestant

	}
	clergymen = {

		size = 421
		culture = north_german
		religion = protestant

	}
	clergymen = {

		size = 480
		culture = north_german
		religion = catholic

	}
	labourers = {

		size = 38917
		culture = north_german
		religion = protestant

	}
	labourers = {

		size = 42878
		culture = north_german
		religion = catholic

	}
	officers = {

		size = 91
		culture = north_german
		religion = protestant

	}
	soldiers = {

		size = 915
		culture = north_german
		religion = protestant

	}
	soldiers = {

		size = 915
		culture = north_german
		religion = catholic

	}

}
566 = {

	capitalists = {

		size = 1259
		culture = north_german
		religion = protestant

	}
	artisans = {

		size = 4120
		culture = north_german
		religion = protestant

	}
	artisans = {

		size = 1007
		culture = north_german
		religion = catholic

	}
	artisans = {

		size = 270
		culture = ashkenazi
		religion = jewish

	}
	bureaucrats = {

		size = 299
		culture = north_german
		religion = protestant

	}
	clergymen = {

		size = 803
		culture = north_german
		religion = protestant

	}
	clergymen = {

		size = 206
		culture = north_german
		religion = catholic

	}
	labourers = {

		size = 71631
		culture = north_german
		religion = protestant

	}
	labourers = {

		size = 18749
		culture = north_german
		religion = catholic

	}
	officers = {

		size = 183
		culture = north_german
		religion = protestant

	}
	soldiers = {

		size = 4168
		culture = north_german
		religion = protestant

	}
	soldiers = {

		size = 274
		culture = north_german
		religion = catholic

	}

}
567 = {

	capitalists = {

		size = 915
		culture = north_german
		religion = protestant

	}
	artisans = {

		size = 2289
		culture = north_german
		religion = protestant

	}
	clergymen = {

		size = 457
		culture = north_german
		religion = protestant

	}
	labourers = {

		size = 32122
		culture = north_german
		religion = protestant

	}
	officers = {

		size = 183
		culture = north_german
		religion = protestant

	}
	soldiers = {

		size = 1406
		culture = north_german
		religion = protestant

	}
	soldiers = {

		size = 320
		culture = north_german
		religion = catholic

	}

}
568 = {

	artisans = {

		size = 2380
		culture = north_german
		religion = protestant

	}
	artisans = {

		size = 457
		culture = north_german
		religion = catholic

	}
	clergymen = {

		size = 457
		culture = north_german
		religion = protestant

	}
	clergymen = {

		size = 91
		culture = north_german
		religion = catholic

	}
	labourers = {

		size = 32901
		culture = north_german
		religion = protestant

	}
	labourers = {

		size = 9431
		culture = north_german
		religion = catholic

	}

}




569 = {

	artisans = {

		size = 686
		culture = south_german
		religion = catholic

	}
	artisans = {

		size = 2289
		culture = south_german
		religion = protestant

	}
	artisans = {

		size = 224
		culture = ashkenazi
		religion = jewish

	}
	clergymen = {

		size = 141
		culture = south_german
		religion = catholic

	}
	clergymen = {

		size = 366
		culture = south_german
		religion = protestant

	}
	labourers = {

		size = 12591
		culture = south_german
		religion = catholic

	}
	labourers = {

		size = 42672
		culture = south_german
		religion = protestant

	}

}
570 = {

	capitalists = {

		size = 457
		culture = north_german
		religion = protestant

	}
	artisans = {

		size = 5402
		culture = north_german
		religion = protestant

	}
	artisans = {

		size = 1007
		culture = north_german
		religion = catholic

	}
	artisans = {

		size = 499
		culture = ashkenazi
		religion = jewish

	}
	clergymen = {

		size = 462
		culture = north_german
		religion = protestant

	}
	clergymen = {

		size = 91
		culture = north_german
		religion = catholic

	}
	labourers = {

		size = 39009
		culture = north_german
		religion = protestant

	}
	labourers = {

		size = 7966
		culture = north_german
		religion = catholic

	}
	soldiers = {

		size = 457
		culture = north_german
		religion = protestant

	}
	soldiers = {

		size = 91
		culture = north_german
		religion = catholic

	}

}
571 = {

	capitalists = {

		size = 595
		culture = south_german
		religion = catholic

	}
	artisans = {

		size = 2838
		culture = south_german
		religion = catholic

	}
	artisans = {

		size = 3479
		culture = south_german
		religion = protestant

	}
	artisans = {

		size = 453
		culture = ashkenazi
		religion = jewish

	}
	clergymen = {

		size = 599
		culture = south_german
		religion = catholic

	}
	clergymen = {

		size = 640
		culture = south_german
		religion = protestant

	}
	labourers = {

		size = 52625
		culture = south_german
		religion = catholic

	}
	labourers = {

		size = 64786
		culture = south_german
		religion = protestant

	}
	officers = {

		size = 5
		culture = south_german
		religion = catholic

	}
	soldiers = {

		size = 950
		culture = south_german
		religion = catholic

	}
	soldiers = {

		size = 686
		culture = south_german
		religion = protestant

	}

}

#################
#	Rhineland	#
#################
572 = {

	artisans = {

		size = 1236
		culture = north_german
		religion = protestant

	}
	artisans = {

		size = 1281
		culture = north_german
		religion = catholic

	}
	bureaucrats = {

		size = 778
		culture = north_german
		religion = protestant

	}
	clergymen = {

		size = 228
		culture = north_german
		religion = protestant

	}
	clergymen = {

		size = 251
		culture = north_german
		religion = catholic

	}
	labourers = {

		size = 21772
		culture = north_german
		religion = protestant

	}
	labourers = {

		size = 23625
		culture = north_german
		religion = catholic

	}

}
573 = {

	capitalists = {

		size = 503
		culture = north_german
		religion = protestant

	}
	capitalists = {

		size = 640
		culture = north_german
		religion = catholic

	}
	artisans = {

		size = 1144
		culture = north_german
		religion = protestant

	}
	artisans = {

		size = 2380
		culture = north_german
		religion = catholic

	}
	artisans = {

		size = 93
		culture = french
		religion = catholic

	}
	clergymen = {

		size = 228
		culture = north_german
		religion = protestant

	}
	clergymen = {

		size = 503
		culture = north_german
		religion = catholic

	}
	labourers = {

		size = 20168
		culture = north_german
		religion = protestant

	}
	labourers = {

		size = 42946
		culture = north_german
		religion = catholic

	}
	labourers = {

		size = 1716
		culture = french
		religion = catholic

	}
	soldiers = {

		size = 549
		culture = north_german
		religion = protestant

	}
	soldiers = {

		size = 686
		culture = north_german
		religion = catholic

	}

}
574 = {

	artisans = {

		size = 1373
		culture = north_german
		religion = protestant

	}
	artisans = {

		size = 1236
		culture = north_german
		religion = catholic

	}
	clergymen = {

		size = 251
		culture = north_german
		religion = protestant

	}
	clergymen = {

		size = 251
		culture = north_german
		religion = catholic

	}
	labourers = {

		size = 25250
		culture = north_german
		religion = protestant

	}
	labourers = {

		size = 22778
		culture = north_german
		religion = catholic

	}

}
575 = {

	capitalists = {

		size = 2822
		culture = north_german
		religion = catholic

	}
	capitalists = {

		size = 619
		culture = dutch
		religion = catholic

	}
	artisans = {

		size = 9157
		culture = north_german
		religion = catholic

	}
	artisans = {

		size = 953
		culture = dutch
		religion = catholic

	}
	artisans = {

		size = 3685
		culture = north_german
		religion = catholic

	}
	artisans = {

		size = 654
		culture = ashkenazi
		religion = jewish

	}
	bureaucrats = {

		size = 1922
		culture = north_german
		religion = catholic

	}
	capitalists = {

		size = 5
		culture = north_german
		religion = catholic

	}
	clergymen = {

		size = 1130
		culture = north_german
		religion = catholic

	}
	clerks = {

		size = 656
		culture = north_german
		religion = catholic

	}
	craftsmen = {

		size = 687
		culture = dutch
		religion = catholic

	}
	craftsmen = {

		size = 3128
		culture = north_german
		religion = catholic

	}
	labourers = {

		size = 15418
		culture = dutch
		religion = catholic

	}
	labourers = {

		size = 70240
		culture = north_german
		religion = catholic

	}
	officers = {

		size = 457
		culture = north_german
		religion = catholic

	}
	officers = {

		size = 183
		culture = dutch
		religion = catholic

	}
	soldiers = {

		size = 6661
		culture = north_german
		religion = catholic

	}
	soldiers = {

		size = 343
		culture = dutch
		religion = catholic

	}

}
576 = {

	artisans = {

		size = 656
		culture = dutch
		religion = catholic

	}
	artisans = {

		size = 2464
		culture = north_german
		religion = catholic

	}
	clergymen = {

		size = 603
		culture = north_german
		religion = catholic

	}
	labourers = {

		size = 12366
		culture = dutch
		religion = catholic

	}
	labourers = {

		size = 49311
		culture = north_german
		religion = catholic

	}

}
577 = {

	artisans = {

		size = 3055
		culture = dutch
		religion = catholic

	}
	artisans = {

		size = 1019
		culture = north_german
		religion = catholic

	}
	clergymen = {

		size = 801
		culture = north_german
		religion = catholic

	}
	labourers = {

		size = 18469
		culture = north_german
		religion = catholic

	}
	labourers = {

		size = 55405
		culture = dutch
		religion = catholic

	}

}
578 = {

	capitalists = {

		size = 824
		culture = north_german
		religion = catholic

	}
	capitalists = {

		size = 640
		culture = dutch
		religion = protestant

	}
	artisans = {

		size = 194
		culture = dutch
		religion = protestant

	}
	artisans = {

		size = 3845
		culture = north_german
		religion = catholic

	}
	artisans = {

		size = 813
		culture = north_german
		religion = protestant

	}
	clergymen = {

		size = 618
		culture = north_german
		religion = catholic

	}
	clergymen = {

		size = 183
		culture = dutch
		religion = protestant

	}
	labourers = {

		size = 3001
		culture = dutch
		religion = protestant

	}
	labourers = {

		size = 57163
		culture = north_german
		religion = catholic

	}
	labourers = {

		size = 14855
		culture = north_german
		religion = protestant

	}
	soldiers = {

		size = 168
		culture = dutch
		religion = protestant

	}
	soldiers = {

		size = 2770
		culture = north_german
		religion = catholic

	}
	soldiers = {

		size = 1274
		culture = north_german
		religion = protestant

	}

}
579 = {

	artisans = {

		size = 183
		culture = north_german
		religion = catholic

	}
	artisans = {

		size = 2151
		culture = north_german
		religion = protestant

	}
	clergymen = {

		size = 68
		culture = north_german
		religion = catholic

	}
	clergymen = {

		size = 412
		culture = north_german
		religion = protestant

	}
	labourers = {

		size = 3388
		culture = north_german
		religion = catholic

	}
	labourers = {

		size = 38688
		culture = north_german
		religion = protestant

	}

}
580 = {

	artisans = {

		size = 1281
		culture = north_german
		religion = protestant

	}
	artisans = {

		size = 3021
		culture = north_german
		religion = catholic

	}
	artisans = {

		size = 224
		culture = ashkenazi
		religion = jewish

	}
	bureaucrats = {

		size = 938
		culture = north_german
		religion = protestant

	}
	clergymen = {

		size = 256
		culture = north_german
		religion = protestant

	}
	clergymen = {

		size = 618
		culture = north_german
		religion = catholic

	}
	labourers = {

		size = 22640
		culture = north_german
		religion = protestant

	}
	labourers = {

		size = 54461
		culture = north_german
		religion = catholic

	}

}
581 = {

	capitalists = {

		size = 332
		culture = dutch
		religion = protestant

	}
	capitalists = {

		size = 675
		culture = north_german
		religion = protestant

	}
	capitalists = {

		size = 1762
		culture = north_german
		religion = catholic

	}
	artisans = {

		size = 654
		culture = dutch
		religion = protestant

	}
	artisans = {

		size = 353
		culture = north_german
		religion = protestant

	}
	artisans = {

		size = 4441
		culture = north_german
		religion = catholic

	}
	clergymen = {

		size = 184
		culture = dutch
		religion = protestant

	}
	clergymen = {

		size = 979
		culture = north_german
		religion = catholic

	}
	labourers = {

		size = 11194
		culture = dutch
		religion = protestant

	}
	labourers = {

		size = 2198
		culture = north_german
		religion = protestant

	}
	labourers = {

		size = 79895
		culture = north_german
		religion = catholic

	}
	officers = {

		size = 47
		culture = north_german
		religion = protestant

	}
	soldiers = {

		size = 3344
		culture = north_german
		religion = protestant

	}
	soldiers = {

		size = 6501
		culture = north_german
		religion = catholic

	}

}
582 = {

	artisans = {

		size = 1556
		culture = north_german
		religion = protestant

	}
	artisans = {

		size = 1007
		culture = north_german
		religion = catholic

	}
	clergymen = {

		size = 343
		culture = north_german
		religion = protestant

	}
	clergymen = {

		size = 183
		culture = north_german
		religion = catholic

	}
	labourers = {

		size = 28409
		culture = north_german
		religion = protestant

	}
	labourers = {

		size = 16116
		culture = north_german
		religion = catholic

	}

}
583 = {

	artisans = {

		size = 1007
		culture = north_german
		religion = protestant

	}
	artisans = {

		size = 824
		culture = north_german
		religion = catholic

	}
	clergymen = {

		size = 114
		culture = north_german
		religion = protestant

	}
	clergymen = {

		size = 114
		culture = north_german
		religion = catholic

	}
	labourers = {

		size = 11423
		culture = north_german
		religion = protestant

	}
	labourers = {

		size = 9866
		culture = north_german
		religion = catholic

	}

}
584 = {

	artisans = {

		size = 882
		culture = north_german
		religion = protestant

	}
	artisans = {

		size = 578
		culture = north_german
		religion = catholic

	}
	bureaucrats = {

		size = 3
		culture = north_german
		religion = catholic

	}
	clergymen = {

		size = 160
		culture = north_german
		religion = protestant

	}
	clergymen = {

		size = 114
		culture = north_german
		religion = catholic

	}
	labourers = {

		size = 15269
		culture = north_german
		religion = protestant

	}
	labourers = {

		size = 10187
		culture = north_german
		religion = catholic

	}

}
585 = {

	capitalists = {

		size = 228
		culture = north_german
		religion = protestant

	}
	artisans = {

		size = 1053
		culture = north_german
		religion = protestant

	}
	bureaucrats = {

		size = 45
		culture = north_german
		religion = protestant

	}
	clergymen = {

		size = 224
		culture = north_german
		religion = protestant

	}
	labourers = {

		size = 19055
		culture = north_german
		religion = protestant

	}
	labourers = {

		size = 897
		culture = north_german
		religion = catholic

	}
	officers = {

		size = 22
		culture = north_german
		religion = protestant

	}
	soldiers = {

		size = 915
		culture = north_german
		religion = protestant

	}

}
#####################
#	South Germany	#
#####################
586 = {

	capitalists = {

		size = 2518
		culture = south_german
		religion = catholic

	}
	artisans = {

		size = 7005
		culture = south_german
		religion = catholic

	}
	artisans = {

		size = 224
		culture = ashkenazi
		religion = jewish

	}
	artisans = {

		size = 228
		culture = south_german
		religion = protestant

	}
	bureaucrats = {

		size = 640
		culture = south_german
		religion = catholic

	}
	clergymen = {

		size = 1446
		culture = south_german
		religion = catholic

	}
	labourers = {

		size = 127878
		culture = south_german
		religion = catholic

	}
	labourers = {

		size = 4029
		culture = south_german
		religion = protestant

	}
	officers = {

		size = 320
		culture = south_german
		religion = catholic

	}
	soldiers = {

		size = 2838
		culture = south_german
		religion = catholic

	}
	soldiers = {

		size = 526
		culture = south_german
		religion = protestant

	}

}
587 = {

	artisans = {

		size = 2609
		culture = south_german
		religion = catholic

	}
	artisans = {

		size = 179
		culture = south_german
		religion = protestant

	}
	bureaucrats = {

		size = 1
		culture = south_german
		religion = protestant

	}
	clergymen = {

		size = 595
		culture = south_german
		religion = catholic

	}
	labourers = {

		size = 47595
		culture = south_german
		religion = catholic

	}
	labourers = {

		size = 3388
		culture = south_german
		religion = protestant

	}

}

588 = {

	artisans = {

		size = 1694
		culture = south_german
		religion = catholic

	}
	artisans = {

		size = 183
		culture = south_german
		religion = protestant

	}
	clergymen = {

		size = 412
		culture = south_german
		religion = catholic

	}
	labourers = {

		size = 31157
		culture = south_german
		religion = catholic

	}
	labourers = {

		size = 3388
		culture = south_german
		religion = protestant

	}

}
589 = {

	capitalists = {

		size = 2518
		culture = south_german
		religion = protestant

	}
	capitalists = {

		size = 824
		culture = south_german
		religion = catholic

	}
	artisans = {

		size = 8699
		culture = south_german
		religion = protestant

	}
	artisans = {

		size = 1373
		culture = south_german
		religion = catholic

	}
	bureaucrats = {

		size = 778
		culture = south_german
		religion = protestant

	}
	clergymen = {

		size = 1373
		culture = south_german
		religion = protestant

	}
	clergymen = {

		size = 160
		culture = south_german
		religion = catholic

	}
	labourers = {

		size = 120141
		culture = south_german
		religion = protestant

	}
	labourers = {

		size = 13895
		culture = south_german
		religion = catholic

	}
	officers = {

		size = 412
		culture = south_german
		religion = protestant

	}
	soldiers = {

		size = 11217
		culture = south_german
		religion = protestant

	}
	soldiers = {

		size = 1236
		culture = south_german
		religion = catholic

	}

}
590 = {

	artisans = {

		size = 3891
		culture = south_german
		religion = protestant

	}
	clergymen = {

		size = 755
		culture = south_german
		religion = protestant

	}
	labourers = {

		size = 72547
		culture = south_german
		religion = protestant

	}

}
591 = {

	artisans = {

		size = 1739
		culture = south_german
		religion = protestant

	}
	artisans = {

		size = 1602
		culture = south_german
		religion = catholic

	}
	bureaucrats = {

		size = 1
		culture = south_german
		religion = protestant

	}
	clergymen = {

		size = 332
		culture = south_german
		religion = protestant

	}
	clergymen = {

		size = 304
		culture = south_german
		religion = catholic

	}
	labourers = {

		size = 33814
		culture = south_german
		religion = protestant

	}
	labourers = {

		size = 28043
		culture = south_german
		religion = catholic

	}

}
592 = {

	artisans = {

		size = 9157
		culture = south_german
		religion = catholic

	}
	clergymen = {

		size = 961
		culture = south_german
		religion = catholic

	}
	labourers = {

		size = 71379
		culture = south_german
		religion = catholic

	}

}
593 = {

	artisans = {

		size = 503
		culture = south_german
		religion = protestant

	}
	artisans = {

		size = 4166
		culture = south_german
		religion = catholic

	}
	clergymen = {

		size = 91
		culture = south_german
		religion = protestant

	}
	clergymen = {

		size = 847
		culture = south_german
		religion = catholic

	}
	labourers = {

		size = 5814
		culture = south_german
		religion = protestant

	}
	labourers = {

		size = 76690
		culture = south_german
		religion = catholic

	}

}
594 = {

	capitalists = {

		size = 137
		culture = south_german
		religion = catholic

	}
	artisans = {

		size = 709
		culture = south_german
		religion = catholic

	}
	bureaucrats = {

		size = 18
		culture = south_german
		religion = catholic

	}
	clergymen = {

		size = 137
		culture = south_german
		religion = catholic

	}
	clergymen = {

		size = 22
		culture = ashkenazi
		religion = jewish

	}
	labourers = {

		size = 12032
		culture = south_german
		religion = catholic

	}
	officers = {

		size = 13
		culture = south_german
		religion = catholic

	}
	soldiers = {

		size = 915
		culture = south_german
		religion = catholic

	}

}
#################
#	 Bavaria	#
#################
595 = {

	capitalists = {

		size = 2747
		culture = south_german
		religion = catholic

	}
	capitalists = {

		size = 1327
		culture = south_german
		religion = protestant

	}
	artisans = {

		size = 4120
		culture = south_german
		religion = catholic

	}
	artisans = {

		size = 5036
		culture = south_german
		religion = protestant

	}
	artisans = {

		size = 897
		culture = ashkenazi
		religion = jewish

	}
	bureaucrats = {

		size = 959
		culture = south_german
		religion = catholic

	}
	clergymen = {

		size = 1048
		culture = south_german
		religion = catholic

	}
	clergymen = {

		size = 1259
		culture = south_german
		religion = protestant

	}
	labourers = {

		size = 85504
		culture = south_german
		religion = catholic

	}
	labourers = {

		size = 101895
		culture = south_german
		religion = protestant

	}
	officers = {

		size = 413
		culture = south_german
		religion = catholic

	}
	soldiers = {

		size = 3631
		culture = south_german
		religion = catholic

	}
	soldiers = {

		size = 2197
		culture = south_german
		religion = protestant

	}

}
596 = {

	artisans = {

		size = 1602
		culture = south_german
		religion = catholic

	}
	clergymen = {

		size = 320
		culture = south_german
		religion = catholic

	}
	labourers = {

		size = 28570
		culture = south_german
		religion = catholic

	}

}
597 = {

	artisans = {

		size = 6409
		culture = south_german
		religion = catholic

	}
	clergymen = {

		size = 686
		culture = south_german
		religion = catholic

	}
	labourers = {

		size = 59979
		culture = south_german
		religion = catholic

	}

}
598 = {

	artisans = {

		size = 2294
		culture = south_german
		religion = catholic

	}
	artisans = {

		size = 4486
		culture = south_german
		religion = protestant

	}
	clergymen = {

		size = 503
		culture = south_german
		religion = catholic

	}
	clergymen = {

		size = 824
		culture = south_german
		religion = protestant

	}
	labourers = {

		size = 41939
		culture = south_german
		religion = catholic

	}
	labourers = {

		size = 70885
		culture = south_german
		religion = protestant

	}

}
599 = {

	capitalists = {

		size = 4258
		culture = south_german
		religion = catholic

	}
	artisans = {

		size = 9157
		culture = south_german
		religion = catholic

	}
	artisans = {

		size = 9157
		culture = south_german
		religion = catholic

	}
	artisans = {

		size = 1007
		culture = south_german
		religion = catholic

	}
	artisans = {

		size = 1831
		culture = south_german
		religion = protestant

	}
	artisans = {

		size = 1121
		culture = ashkenazi
		religion = jewish

	}
	bureaucrats = {

		size = 732
		culture = south_german
		religion = catholic

	}
	clergymen = {

		size = 1900
		culture = south_german
		religion = catholic

	}
	clergymen = {

		size = 114
		culture = south_german
		religion = protestant

	}
	craftsmen = {

		size = 6410
		culture = south_german
		religion = catholic

	}
	labourers = {

		size = 173663
		culture = south_german
		religion = catholic

	}
	labourers = {

		size = 10507
		culture = south_german
		religion = protestant

	}
	officers = {

		size = 366
		culture = south_german
		religion = catholic

	}
	soldiers = {

		size = 5922
		culture = south_german
		religion = catholic

	}
	soldiers = {

		size = 137
		culture = south_german
		religion = protestant

	}

}
600 = {

	artisans = {

		size = 1831
		culture = south_german
		religion = catholic

	}
	clergymen = {

		size = 389
		culture = south_german
		religion = catholic

	}
	labourers = {

		size = 34545
		culture = south_german
		religion = catholic

	}

}
601 = {

	artisans = {

		size = 1831
		culture = south_german
		religion = catholic

	}
	clergymen = {

		size = 389
		culture = south_german
		religion = catholic

	}
	labourers = {

		size = 34041
		culture = south_german
		religion = catholic

	}

}
602 = {

	artisans = {

		size = 4578
		culture = south_german
		religion = catholic

	}
	clergymen = {

		size = 572
		culture = south_german
		religion = catholic

	}
	craftsmen = {

		size = 21
		culture = south_german
		religion = catholic

	}
	labourers = {

		size = 50202
		culture = south_german
		religion = catholic

	}

}

#########################
#						#
#		 Prussia		#
#						#
#########################
679 = {

	artisans = {

		size = 1739
		culture = north_german
		religion = protestant

	}
	artisans = {

		size = 91
		culture = western_slavic
		religion = protestant

	}
	clergymen = {

		size = 389
		culture = north_german
		religion = protestant

	}
	labourers = {

		size = 31477
		culture = north_german
		religion = protestant

	}
	labourers = {

		size = 1671
		culture = western_slavic
		religion = protestant

	}

}
680 = {

	artisans = {

		size = 1639
		culture = north_german
		religion = protestant

	}
	artisans = {

		size = 191
		culture = western_slavic
		religion = protestant

	}
	clergymen = {

		size = 366
		culture = north_german
		religion = protestant

	}
	clerks = {

		size = 2
		culture = north_german
		religion = protestant

	}
	craftsmen = {

		size = 3
		culture = north_german
		religion = protestant

	}
	labourers = {

		size = 30510
		culture = north_german
		religion = protestant

	}
	labourers = {

		size = 2671
		culture = western_slavic
		religion = protestant

	}

}
681 = {

	artisans = {

		size = 2197
		culture = north_german
		religion = protestant

	}
	artisans = {

		size = 183
		culture = ashkenazi
		religion = jewish

	}
	clergymen = {

		size = 412
		culture = north_german
		religion = protestant

	}
	labourers = {

		size = 42511
		culture = north_german
		religion = protestant

	}

}
682 = {

	capitalists = {

		size = 6043
		culture = north_german
		religion = protestant

	}
	artisans = {

		size = 7044
		culture = north_german
		religion = protestant

	}
	artisans = {

		size = 783
		culture = south_german
		religion = catholic

	}
	artisans = {

		size = 352
		culture = ashkenazi
		religion = jewish

	}
	artisans = {

		size = 530
		culture = polish
		religion = catholic

	}
	bureaucrats = {

		size = 2930
		culture = north_german
		religion = protestant

	}
	capitalists = {

		size = 18
		culture = north_german
		religion = protestant

	}
	clergymen = {

		size = 1000
		culture = north_german
		religion = protestant

	}
	clergymen = {

		size = 80
		culture = south_german
		religion = catholic

	}
	clergymen = {

		size = 110
		culture = polish
		religion = catholic

	}
	clerks = {

		size = 656
		culture = north_german
		religion = protestant

	}
	craftsmen = {

		size = 2900
		culture = north_german
		religion = protestant

	}
	labourers = {

		size = 84291
		culture = north_german
		religion = protestant

	}
	labourers = {

		size = 11947
		culture = south_german
		religion = catholic

	}
	labourers = {

		size = 200
		culture = ashkenazi
		religion = jewish

	}
	labourers = {

		size = 9211
		culture = polish
		religion = catholic

	}
	labourers = {

		size = 847
		culture = czech
		religion = catholic

	}
	officers = {

		size = 686
		culture = north_german
		religion = protestant

	}
	soldiers = {

		size = 4715
		culture = north_german
		religion = protestant

	}
	soldiers = {

		size = 1062
		culture = south_german
		religion = catholic

	}
	soldiers = {

		size = 915
		culture = polish
		religion = catholic

	}

}
683 = {

	artisans = {

		size = 5127
		culture = north_german
		religion = protestant

	}
	artisans = {

		size = 100
		culture = polish
		religion = catholic

	}
	clergymen = {

		size = 807
		culture = north_german
		religion = protestant

	}
	labourers = {

		size = 72853
		culture = north_german
		religion = protestant

	}
	labourers = {

		size = 1000
		culture = south_german
		religion = catholic

	}
	labourers = {

		size = 1226
		culture = polish
		religion = catholic

	}

}
684 = {

	capitalists = {

		size = 3433
		culture = north_german
		religion = protestant

	}
	artisans = {

		size = 1739
		culture = north_german
		religion = protestant

	}
	artisans = {

		size = 686
		culture = south_german
		religion = catholic

	}
	artisans = {

		size = 1007
		culture = ashkenazi
		religion = jewish

	}
	artisans = {

		size = 2930
		culture = polish
		religion = catholic

	}
	artisans = {

		size = 183
		culture = czech
		religion = catholic

	}
	clergymen = {

		size = 343
		culture = north_german
		religion = protestant

	}
	clergymen = {

		size = 114
		culture = south_german
		religion = catholic

	}
	clergymen = {

		size = 572
		culture = polish
		religion = catholic

	}
	labourers = {

		size = 30012
		culture = north_german
		religion = protestant

	}
	labourers = {

		size = 12018
		culture = south_german
		religion = catholic

	}
	labourers = {

		size = 778
		culture = ashkenazi
		religion = jewish

	}
	labourers = {

		size = 53454
		culture = polish
		religion = catholic

	}
	labourers = {

		size = 3411
		culture = czech
		religion = catholic

	}
	soldiers = {

		size = 1053
		culture = north_german
		religion = protestant

	}
	soldiers = {

		size = 3754
		culture = south_german
		religion = catholic

	}
	soldiers = {

		size = 1831
		culture = polish
		religion = catholic

	}

}
685 = {

	artisans = {

		size = 457
		culture = north_german
		religion = protestant

	}
	artisans = {

		size = 1007
		culture = south_german
		religion = catholic

	}
	artisans = {

		size = 3342
		culture = polish
		religion = catholic

	}
	artisans = {

		size = 457
		culture = czech
		religion = catholic

	}
	clergymen = {

		size = 114
		culture = north_german
		religion = protestant

	}
	clergymen = {

		size = 160
		culture = south_german
		religion = catholic

	}
	clergymen = {

		size = 618
		culture = polish
		religion = catholic

	}
	labourers = {

		size = 6936
		culture = north_german
		religion = protestant

	}
	labourers = {

		size = 16322
		culture = south_german
		religion = catholic

	}
	labourers = {

		size = 61970
		culture = polish
		religion = catholic

	}
	labourers = {

		size = 8561
		culture = czech
		religion = catholic

	}

}

687 = {

	artisans = {

		size = 1895
		culture = north_german
		religion = protestant

	}
	artisans = {

		size = 211
		culture = western_slavic
		religion = protestant

	}
	artisans = {

		size = 183
		culture = south_german
		religion = catholic

	}
	clergymen = {

		size = 430
		culture = north_german
		religion = protestant

	}
	labourers = {

		size = 31113
		culture = north_german
		religion = protestant

	}
	labourers = {

		size = 16000
		culture = western_slavic
		religion = protestant

	}
	labourers = {

		size = 3369
		culture = south_german
		religion = catholic

	}

}

690 = {

	capitalists = {

		size = 1556
		culture = north_german
		religion = protestant

	}
	artisans = {

		size = 8199
		culture = north_german
		religion = protestant

	}
	artisans = {

		size = 500
		culture = western_slavic
		religion = protestant

	}
	artisans = {

		size = 361
		culture = ashkenazi
		religion = jewish

	}
	artisans = {

		size = 4578
		culture = polish
		religion = catholic

	}
	bureaucrats = {

		size = 343
		culture = north_german
		religion = protestant

	}
	clergymen = {

		size = 119
		culture = north_german
		religion = protestant

	}
	labourers = {

		size = 907
		culture = north_german
		religion = protestant

	}
	labourers = {

		size = 351
		culture = western_slavic
		religion = protestant

	}
	labourers = {

		size = 1716
		culture = polish
		religion = catholic

	}
	officers = {

		size = 183
		culture = north_german
		religion = protestant

	}
	soldiers = {

		size = 621
		culture = north_german
		religion = protestant

	}
	soldiers = {

		size = 398
		culture = polish
		religion = catholic

	}

}
691 = {

	artisans = {

		size = 45
		culture = north_german
		religion = catholic

	}
	artisans = {

		size = 1814
		culture = polish
		religion = catholic

	}
	artisans = {

		size = 200
		culture = western_slavic
		religion = protestant

	}
	clergymen = {

		size = 288
		culture = north_german
		religion = protestant

	}
	clergymen = {

		size = 91
		culture = polish
		religion = catholic

	}
	labourers = {

		size = 17820
		culture = north_german
		religion = protestant

	}
	labourers = {

		size = 7930
		culture = western_slavic
		religion = protestant

	}
	labourers = {

		size = 841
		culture = north_german
		religion = catholic

	}
	labourers = {

		size = 11293
		culture = polish
		religion = catholic

	}

}
692 = {

	artisans = {

		size = 1144
		culture = north_german
		religion = protestant

	}
	artisans = {

		size = 320
		culture = polish
		religion = catholic

	}
	clergymen = {

		size = 206
		culture = north_german
		religion = protestant

	}
	labourers = {

		size = 23762
		culture = north_german
		religion = protestant

	}
	labourers = {

		size = 2403
		culture = polish
		religion = catholic

	}

}
693 = {

	artisans = {

		size = 1255
		culture = north_german
		religion = protestant

	}
	artisans = {

		size = 100
		culture = polish
		religion = catholic

	}
	clergymen = {

		size = 292
		culture = north_german
		religion = protestant

	}
	labourers = {

		size = 21291
		culture = north_german
		religion = protestant

	}
	labourers = {

		size = 1000
		culture = polish
		religion = catholic

	}

}
694 = {

	artisans = {

		size = 820
		culture = north_german
		religion = protestant

	}
	artisans = {

		size = 132
		culture = ashkenazi
		religion = jewish

	}
	artisans = {

		size = 1190
		culture = polish
		religion = catholic

	}
	bureaucrats = {

		size = 1
		culture = north_german
		religion = catholic

	}
	clergymen = {

		size = 141
		culture = north_german
		religion = protestant

	}
	clergymen = {

		size = 206
		culture = polish
		religion = catholic

	}
	labourers = {

		size = 12730
		culture = north_german
		religion = protestant

	}
	labourers = {

		size = 1694
		culture = north_german
		religion = catholic

	}
	labourers = {

		size = 22183
		culture = polish
		religion = catholic

	}

}
695 = {

	capitalists = {

		size = 6226
		culture = north_german
		religion = protestant

	}
	artisans = {

		size = 9157
		culture = north_german
		religion = protestant

	}
	artisans = {

		size = 4578
		culture = north_german
		religion = protestant

	}
	artisans = {

		size = 1007
		culture = north_german
		religion = catholic

	}
	artisans = {

		size = 453
		culture = ashkenazi
		religion = jewish

	}
	artisans = {

		size = 228
		culture = polish
		religion = protestant

	}
	artisans = {

		size = 228
		culture = lithuanian
		religion = protestant

	}
	bureaucrats = {

		size = 1190
		culture = north_german
		religion = protestant

	}
	clergymen = {

		size = 874
		culture = north_german
		religion = protestant

	}
	clergymen = {

		size = 160
		culture = north_german
		religion = catholic

	}
	labourers = {

		size = 63069
		culture = north_german
		religion = protestant

	}
	labourers = {

		size = 16505
		culture = north_german
		religion = catholic

	}
	labourers = {

		size = 4235
		culture = polish
		religion = protestant

	}
	labourers = {

		size = 5182
		culture = lithuanian
		religion = protestant

	}
	officers = {

		size = 228
		culture = north_german
		religion = protestant

	}
	soldiers = {

		size = 9067
		culture = north_german
		religion = protestant

	}
	soldiers = {

		size = 1877
		culture = north_german
		religion = catholic

	}

}
696 = {

	artisans = {

		size = 1700
		culture = north_german
		religion = protestant

	}
	artisans = {

		size = 1648
		culture = polish
		religion = protestant

	}
	artisans = {

		size = 228
		culture = polish
		religion = catholic

	}
	clergymen = {

		size = 280
		culture = north_german
		religion = protestant

	}
	clergymen = {

		size = 297
		culture = polish
		religion = protestant

	}
	labourers = {

		size = 28000
		culture = north_german
		religion = protestant

	}
	labourers = {

		size = 30103
		culture = polish
		religion = protestant

	}
	labourers = {

		size = 4235
		culture = polish
		religion = catholic

	}

}
697 = {

	artisans = {

		size = 2380
		culture = north_german
		religion = protestant

	}
	artisans = {

		size = 91
		culture = polish
		religion = protestant

	}
	artisans = {

		size = 137
		culture = lithuanian
		religion = protestant

	}
	clergymen = {

		size = 480
		culture = north_german
		religion = protestant

	}
	labourers = {

		size = 43290
		culture = north_german
		religion = protestant

	}
	labourers = {

		size = 1694
		culture = polish
		religion = protestant

	}
	labourers = {

		size = 3479
		culture = lithuanian
		religion = protestant

	}

}
698 = {

	artisans = {

		size = 2197
		culture = north_german
		religion = protestant

	}
	artisans = {

		size = 132
		culture = north_german
		religion = jewish

	}
	artisans = {

		size = 869
		culture = lithuanian
		religion = protestant

	}
	clergymen = {

		size = 187
		culture = north_german
		religion = protestant

	}
	clergymen = {

		size = 137
		culture = lithuanian
		religion = protestant

	}
	labourers = {

		size = 17856
		culture = north_german
		religion = protestant

	}
	labourers = {

		size = 15658
		culture = lithuanian
		religion = protestant

	}

}
699 = {

	capitalists = {

		size = 3166
		culture = north_german
		religion = protestant

	}
	capitalists = {

		size = 2144
		culture = polish
		religion = catholic

	}
	artisans = {

		size = 2426
		culture = north_german
		religion = protestant

	}
	artisans = {

		size = 1952
		culture = ashkenazi
		religion = jewish

	}
	artisans = {

		size = 4662
		culture = polish
		religion = catholic

	}
	bureaucrats = {

		size = 640
		culture = north_german
		religion = protestant

	}
	clergymen = {

		size = 297
		culture = north_german
		religion = protestant

	}
	clergymen = {

		size = 55
		culture = ashkenazi
		religion = jewish

	}
	clergymen = {

		size = 745
		culture = polish
		religion = catholic

	}
	labourers = {

		size = 24563
		culture = north_german
		religion = protestant

	}
	labourers = {

		size = 3909
		culture = ashkenazi
		religion = jewish

	}
	labourers = {

		size = 78495
		culture = polish
		religion = catholic

	}
	officers = {

		size = 320
		culture = north_german
		religion = protestant

	}
	soldiers = {

		size = 2750
		culture = north_german
		religion = protestant

	}
	soldiers = {

		size = 1335
		culture = north_german
		religion = catholic

	}
	soldiers = {

		size = 2831
		culture = polish
		religion = catholic

	}

}
700 = {

	artisans = {

		size = 961
		culture = north_german
		religion = protestant

	}
	artisans = {

		size = 320
		culture = north_german
		religion = catholic

	}
	artisans = {

		size = 1126
		culture = ashkenazi
		religion = jewish

	}
	artisans = {

		size = 1098
		culture = polish
		religion = catholic

	}
	clergymen = {

		size = 247
		culture = north_german
		religion = protestant

	}
	clergymen = {

		size = 206
		culture = polish
		religion = catholic

	}
	labourers = {

		size = 18451
		culture = north_german
		religion = protestant

	}
	labourers = {

		size = 5975
		culture = north_german
		religion = catholic

	}
	labourers = {

		size = 20489
		culture = polish
		religion = catholic

	}

}
701 = {

	artisans = {

		size = 686
		culture = north_german
		religion = protestant

	}
	artisans = {

		size = 1378
		culture = ashkenazi
		religion = jewish

	}
	artisans = {

		size = 4320
		culture = polish
		religion = catholic

	}
	clergymen = {

		size = 137
		culture = north_german
		religion = protestant

	}
	clergymen = {

		size = 51
		culture = ashkenazi
		religion = jewish

	}
	clergymen = {

		size = 795
		culture = polish
		religion = catholic

	}
	labourers = {

		size = 11139
		culture = north_german
		religion = protestant

	}
	labourers = {

		size = 4486
		culture = ashkenazi
		religion = jewish

	}
	labourers = {

		size = 86070
		culture = polish
		religion = catholic

	}

}

3255 = {

	artisans = {

		size = 2213
		culture = north_german
		religion = protestant

	}
	artisans = {

		size = 500
		culture = ashkenazi
		religion = jewish

	}
	artisans = {

		size = 600
		culture = polish
		religion = catholic

	}
	clergymen = {

		size = 425
		culture = north_german
		religion = protestant

	}
	clergymen = {

		size = 100
		culture = polish
		religion = catholic

	}
	labourers = {

		size = 40000
		culture = north_german
		religion = protestant

	}
	labourers = {

		size = 100
		culture = ashkenazi
		religion = jewish

	}
	labourers = {

		size = 11000
		culture = polish
		religion = catholic

	}

}
3256 = {

	artisans = {

		size = 2013
		culture = north_german
		religion = protestant

	}
	artisans = {

		size = 224
		culture = south_german
		religion = catholic

	}
	artisans = {

		size = 500
		culture = ashkenazi
		religion = jewish

	}
	artisans = {

		size = 600
		culture = polish
		religion = catholic

	}
	clergymen = {

		size = 400
		culture = north_german
		religion = protestant

	}
	clergymen = {

		size = 80
		culture = south_german
		religion = catholic

	}
	clergymen = {

		size = 110
		culture = polish
		religion = catholic

	}
	labourers = {

		size = 35000
		culture = north_german
		religion = protestant

	}
	labourers = {

		size = 5000
		culture = south_german
		religion = catholic

	}
	labourers = {

		size = 100
		culture = ashkenazi
		religion = jewish

	}
	labourers = {

		size = 12000
		culture = polish
		religion = catholic

	}

}

3258 = {

	artisans = {

		size = 981
		culture = north_german
		religion = protestant

	}
	artisans = {

		size = 312
		culture = polish
		religion = catholic

	}
	clergymen = {

		size = 183
		culture = north_german
		religion = protestant

	}
	labourers = {

		size = 19366
		culture = north_german
		religion = protestant

	}
	labourers = {

		size = 5844
		culture = polish
		religion = catholic

	}

}

